 200 9890

 142   81
 174   33
 101   73
 174  104
 127   34
  53  171
  47  190
  90    3
 163  182
  67  166
 100  170
  68   37
  62  186
  11  132
 153  120
 147   22
 125  167
 101  100
  89   25
 194   67
  60   95
 135   60
 163   48
 144   90
 131   17
  93   89
  42   81
  62  132
  18   48
 155   60
  55  169
  65  127
 157  171
 140  191
  33  158
  83  135
 130  184
  16  139
 108   40
  32   82
 166   53
  22  128
  40   84
 156   54
  10   83
 141   54
 192   52
 193  161
  78  161
 182   21
  39   99
  45  189
 100   79
  21   99
  87   41
 163  104
  23   41
   9  142
  60   46
 188   66
   7  171
  21   48
 125   22
 182  140
 188  195
   6  180
 124  153
  48  135
  53  144
 126   76
 182   45
  70  173
  10  161
  38   37
  48   72
 121  130
  96   23
  56   30
  26  168
 161  192
 138  149
  40   48
   8  129
 191    4
  83  184
 173    6
 119  195
 170  163
 125  101
 200   16
   5   53
  29  138
 104    5
 117  186
 178  197
  56   44
  21   52
 159  141
  51   23
  62   90
 184   95
  88  125
  59   17
 177   41
 122  155
 164   38
 120  108
  35  181
  97   44
  47   69
 152  145
  26  136
 186   15
 178  184
 107  191
   7  142
  57   66
 103   22
  83   79
 140    4
 188  120
  99  175
 162   71
  83   87
 124  184
 188  197
  35   70
  10  177
  18   19
 132  169
 121  190
 136   34
  49  171
 110   51
  56  128
  79  102
 140  189
 187  130
 154  128
 124   12
 105  138
 155   36
 182   63
 115  122
 131   74
  85  159
  26   23
  20   28
  49  183
  18   99
 135  167
 166  116
   1  109
  95   36
  19  135
 199   49
 168  132
 162   18
 112  200
  14    5
 128  180
 188  144
 101  200
  50  127
  51  121
  91   60
  42   53
 166  110
   9   59
 135  138
  65  191
 136   31
  74  148
 168  105
 134  152
 146  107
  45  168
 138   68
 134   73
  29   67
  63  170
  50  166
 155  164
  41  194
  52  197
 101   41
  29  160
 195  154
 123  146
 120   45
  63  123
  75   90
  56   69
  71   91
  79  163
  52  169
 126   87
 114  179
 153  139
 130  126
  72   53
 197   75
  48  148
 143  185
   4   36
 182   66
 171   28
 114   49
 134   55
  62  137
  36  183
 111   33
 122   30
   1  113
  25   71
  51   12
 106  119
 178    9
 101    1
 183  143
 114  127
 197   32
  59   88
  23  115
 105   20
  83   85
  91  142
 157   77
 173  174
  72   83
 107  100
 159  143
 111  172
  77  124
 173  122
 142  160
 165   94
 107  184
  75   18
   3  139
 172  181
  11   95
  31  169
 167  187
 193   98
 177   14
 122  142
 108  145
 130   23
  67  107
 187  156
  41  153
 149    6
  41   34
 136   33
  43   96
  79   52
  78   64
 146   53
 168   74
  52   68
   3   47
  38  191
 142  185
 117   90
  56  112
 172   19
 170   17
 179  193
 173   60
 159  111
  15  158
 122   75
  82  112
  72  185
  49  162
 112   29
 182  196
 198    9
  43   87
  64   62
  46  129
  94  175
  59  158
 146   92
 185   68
 109  114
 124   22
 108   81
  58  185
 109   49
  20   12
 164   23
  57   87
 131   54
  24   89
 178  123
  75   43
  31   24
  25  124
 194  167
  89   45
   7   34
  91  190
  94  160
  58  191
 177  108
 143  172
 122   16
  93   40
 164  179
 172    5
  28  160
 108  148
 189   24
  41   59
 121  197
 132    1
  89  101
 117  122
  67  184
  60   93
  61    1
   1  103
 143   74
  70  100
 186  166
  23   67
 153   40
  66  194
   8  105
 117   61
  78   72
 161   35
  23  117
 111   52
 157  112
 148  178
 193   83
 125  195
 167  161
  58  198
  71  182
  42  137
  20   51
  25  121
  33   50
 194  143
 160   13
 109   93
 109  119
 102   38
 156  129
 196   54
 154  116
 116   75
  11   22
  56  200
  99   93
 150  173
  86  184
 132  134
  93  124
 119   15
 101  110
   5   22
  23  141
  94   25
 188  168
 175   59
  96  170
  98    7
 178   55
 112  115
  30  158
 173  162
  92  194
  39  162
  37  179
 189   64
  17  173
 131   91
 158   45
 141  101
 125   36
  90   14
   2   71
  49   43
 148   99
  41  131
  25  163
 200  134
  56  165
 181  176
  14  123
 149  135
  37   27
 161   94
  34   37
 150  185
 193  142
 171  170
  83  170
 151   66
 128   59
  77    8
   7   72
   3  133
  33  114
  30   54
  45   20
 191  125
   1  194
 138  184
 107   40
  88  191
 174   17
 166   43
  88  168
 182   68
  97  167
  48  132
 113   75
 174  159
  98  133
 130   87
  22  181
 182   58
 180   23
  92  117
  76   46
 100   59
 188  199
 197   39
 168   53
 151   56
 185  139
 100   28
 157  197
   9   19
  36  177
  87   99
 187   68
  71  115
 132  150
 155   52
 186   76
 114  198
 186  159
  62  102
  28   11
 134   82
  36   19
  28   86
   9   37
   4   58
  95  121
 111   37
 133  173
  74   76
 110   89
  39   92
  50   85
  72  163
  34  139
  32  114
 165   58
  24   20
  13  111
  46  173
   3   88
  77  151
  64   58
  78  145
  62   52
  49   84
 185    4
 169   59
  41    4
  21  173
 142   86
  38  173
  97   16
  12   95
  41   63
  17   54
 112    7
 173  176
   1  105
   2   78
 133  118
 156    6
 134   26
  77   27
 195   26
 156   59
  54  181
 132  160
 197  106
 124   86
  17  129
 139   17
  14    8
  94  197
 107  111
 129   52
 127  150
  77   39
 168   89
  23   27
 174  137
 187   78
 133  129
   1  147
 193  195
   7   97
  11  143
 169  145
   3   71
 122   82
 131   53
  53   45
 106   49
 162  160
  95  186
  53  153
 170   72
 152   37
 200   81
  82   84
  11   15
 116  159
 107   38
  83  146
  28   73
  34   74
  13   12
 127   32
 109   57
  90   41
  16   88
  98  182
 165   36
  29  119
   8  119
  88  129
 160   40
  78   12
 131   87
  61  168
 191   97
 151   54
 151  144
  75   16
 144  194
  37  158
 183  168
  99  169
  84  155
 143  146
 173   95
 141  198
 142   65
 138  129
 154  108
 186  131
  22  188
  26   88
 134   52
  38   54
 112   50
  22  157
 136    4
 150  184
  62   78
 161  107
  44   23
  16  134
 133  122
 159    5
 100  115
 186   42
  62  134
 145  154
 197  198
 100   43
 192  198
  22   42
  73   82
 152  184
 146  193
  86  185
  97  143
 197  112
 107   24
   1  168
 173  167
  60   66
 129   22
  36  172
  86   18
  27  128
 195   46
  49  156
 196  122
 180   37
 197   21
 100    1
  17  159
  31   56
 105  193
  76   53
  44   74
  52   41
  29  192
 168   39
 107  129
 120  125
 176  110
  13  146
  75   27
 172  105
  68  162
  17  119
 155   29
   8  133
 101  151
 173  164
  96   42
  46   10
  44   60
  68  135
 119   25
 130   72
  21  149
  10  157
  83  109
  58    1
  37   62
 137  131
 200   93
  42  175
  14  165
  73  156
 187  104
  71  137
 108  157
  74  104
 117   86
   2  175
  10  114
 146   91
 142   75
  82  169
  60  148
 137  129
  97   74
 163   81
 129  152
  40  188
  27    9
 162  175
  84   24
  59  105
  83  106
  50  135
  75  151
  79   38
 199   20
 153  169
 170   87
  48  111
  46  113
  97  104
  35  105
  42  111
  76  166
 136   75
 174  126
  27  134
 150  197
 195  137
 144   40
  19    8
 142   42
 150   60
  53  196
 124   33
 124  116
 127  125
  33   92
 200  178
   9   67
  88  115
 130   53
 196   10
 125  183
  33   30
  22   12
 196   82
 118   24
  52   43
  27   96
 177  106
 181  160
 132   98
  13   22
  54   56
  57  123
  44  131
  43  163
 183   52
 190   55
 150   16
  42  183
  33   60
 190  192
  41   20
 116  149
 194   21
  16  190
   2   98
 158  151
  58   78
  36  145
   8  104
  99   36
 137   59
 136  158
 161   45
  50  146
 100  181
 148  120
 158  183
 121   44
   7  136
 112   51
 153  198
  62  185
 146   32
  80  190
  41   65
  98  110
 174  140
  20  183
  35    6
 115   83
 107   80
  20  144
 112   55
 100   24
 123  157
 128  113
  39    5
  28  130
  81  137
 148  149
 124   82
 174  197
  15   56
  77   43
 150   15
 112   39
   7   50
  90   58
 183   58
  93  193
 131  149
  42  157
 135  109
  65   46
 182  127
  56   43
  39   80
  78   91
  14   73
  77   24
  24  133
 175  118
 196    6
  95   22
 179  137
 120  100
 189  163
  60  146
  12  142
 131  182
  70  166
 195   78
 154  117
 106    7
  10   77
 148   78
   2   68
 148  159
 195   59
  60  130
  20   49
 195  150
 145   48
  40   14
 107   74
 189   57
  74   60
  55   81
 174   25
   3  188
 167    4
 197  137
 165   31
  84   51
   2  133
  26  187
  93   23
 115    5
   4  199
 141   95
 130  161
  38   36
 178   16
 141  149
 118  181
 157  117
  66   88
 172    3
  82  151
 145   56
  19  164
 184  196
 108  142
  55   21
 170   73
 125  150
  16   68
  22  180
  21  128
 200  143
  13  132
 116  187
 171  152
  61  107
 179   64
  82  110
  85   90
 183  142
 174   15
 152   65
 104   33
 174   11
  42   97
  97   96
 151  149
 187  179
 197   54
 142   11
 116   68
 131  164
 152    9
 174   80
  74  117
  92  177
 160   38
  99  134
  95  127
 110  114
  96   99
 189   41
 146  159
  46  114
  82   23
   2   51
 144  128
   5   91
 116  199
  32   63
  75   95
 147   69
 177   74
 163   77
 123  191
 193  117
 102  137
 129  136
  97  133
 123   32
 185  169
 102  192
  73   98
 108  143
  31   63
 113  168
 121   68
 119  141
 186  144
 139   27
  41  183
 169   75
  61  188
 140  154
  32   13
  49  176
  25  164
  44  133
 181   67
   9   52
  14   10
 126   53
  64  140
 166  102
 181   56
 189  184
 148  127
   7  143
 162   37
  66  178
 185  176
  82  187
  86  156
 185  166
  13  176
  89  141
 175   28
 199    9
 129  112
 143   66
 156  159
  40   45
  45  200
 189    9
  94  103
 134   10
 187   29
 149   40
  44   39
  30  120
  40  117
 159   44
 139   14
 110   28
 152  142
 136  124
  21   75
 137   69
  18  135
  98   60
  41  151
 110   73
  55   87
  51   41
  75  128
 169   62
 150   83
 168   91
 143  169
 100  161
  30  150
 134  115
 179   31
  67  190
 153  190
 152   34
 185  101
 111   34
 108   64
 112  144
  59   48
  86  198
  45  178
 151  120
 139  100
 192    9
  50  129
  48  131
  73   88
 137   80
  49  104
 150  182
  22  142
  33  127
 101  153
 102   67
 117   96
 104   94
 132   94
  78  196
  26   85
  88  135
  34  106
  32   92
  21  200
   1  122
 124  144
  87  111
  11   46
  82   41
 124   36
 108  125
  58    9
  69  105
 120  183
  23   72
  69   99
   9  112
  78  157
  18   83
  68    3
   4  141
  52  113
  25  103
  60  188
 121   27
   1   94
  47  124
   7  125
 174  117
 147  194
 166   10
 145   42
   9   81
 124  195
  44   82
  56  173
  62  156
  95   88
   5   67
 121   34
 131  102
 185   75
   8  101
 149   52
  20   17
  68   64
   3   45
  44  195
  34  188
 121  107
 101   61
 172  168
 113   84
 173   55
 193   52
 120   63
  81  198
  31  156
  16   60
  35  133
 117   66
  35  141
   5  131
 175  179
 138  117
 158   70
  61  149
 140  196
 118  135
  95   47
 156  157
 153   49
 181    5
 125   59
 188   46
  19  122
  70    2
  75  187
  38  133
  79  127
  88   24
  18  146
  68   95
 172   22
 128  192
  32  137
 127  146
   4   26
   1  158
 160   85
 174  175
  47   55
 124  169
  11   89
 126   67
  80  122
 152   41
 118  157
  48   52
 129  177
 189    1
 135  173
  93  164
  65   73
  68   80
  42   91
  78  133
  73   68
 164   33
   3  146
 172  197
  63   87
  48  134
  48   87
 147  169
 189   32
 163  114
 136  155
  58   28
 152   92
  76  158
 172   56
 160  125
  11   10
 161  196
  61  122
  96   58
 125   37
 131  147
 188   49
 121  184
  72  126
  60   12
 109    5
 170  179
 109  121
  80   66
  34  138
 167   12
 132   99
 198   69
  34  197
  52   88
  16   67
  13   67
 198   26
 163   22
  43  139
  61   47
 187   32
 166   77
 104  158
 109  176
  28  164
  95   40
  29   21
 154   40
 136   28
 200  137
  57   90
  85  178
 126   12
 123   20
  43  130
 153   21
  87  151
  29   36
 175   46
  82   97
  89   70
 132  197
  32  195
  16  129
  84   37
  64  185
  46   84
  45   46
 103    8
  45  156
   3  156
 167   76
  60  153
  47  144
 110   24
  80  186
 112  163
  72   14
  47   65
 104  172
  89  196
 160  114
 195  171
 148  179
 179  192
 169  119
 112   18
  10  117
  45  111
 161  162
 181  145
  48   58
  67   79
 112  110
 164   22
  97  193
  69   16
  15  118
  55   53
  43  175
 136  100
 157   53
  92   65
  67   69
  44   64
  23  196
 160   82
 152  125
  60  140
 151  172
  49   22
 170  194
  97  100
 198   85
  75  161
  68   42
   6   71
 109  200
  31  107
 102  110
  83  132
 147   65
 183  119
 162  116
 110  142
 197    4
 142   46
  98   14
  56   48
 142   30
 118    7
 108   27
   6  118
  40  172
   2  188
  89  147
 124   30
 117  198
  55  163
  49   30
  18   58
 170  119
  87   74
  71  126
 165  156
  57  129
  71   94
  80  183
  54  152
  43  133
  41   10
  95   97
  46  144
 141  140
  46   96
  33  160
 180  173
 137   37
  88  153
  42   55
 186  150
 158   69
 118   87
  27  127
  97  161
  48   63
 134   32
 191  137
  22   10
 120   35
  88  101
 188   91
  80   37
   5   54
  47  155
  91  154
 143   33
 143   62
  18   27
  50    3
   3  167
 178   97
  88  158
 157  164
  42  156
 190  144
 178    6
 151  156
  34  141
  60  177
 166  130
  68   19
  79  176
  94   95
  96   65
  56  119
 109  143
  25  197
 178  131
 167   47
 150    5
 147   38
  78   28
  53  120
  97  176
  80   83
 157  129
  26   57
 195  157
 129  115
 169  101
 114    3
  99   22
 198   32
  74  156
 129    5
 116  151
  89   49
  43  194
  93   18
  80   34
  64   72
 130  137
  50  162
  94  181
 123  106
  29  161
  48    9
 184  194
  26   45
 147  183
 162   21
 158   71
  26  123
 152   21
  43   23
  53    9
  44  155
 153  121
  36  148
 182   20
 153  118
 151   55
 197   43
  29   61
  59   33
 163  158
  77   70
  22   77
 140   40
  69   22
   6   98
   4  153
 114  147
  98   42
 163   73
  89  156
 144  100
  12  164
 195   68
 136  132
 133  182
   2   11
 135   17
 111  155
 147   75
 138   21
 159  198
  83  138
  64  121
 194  187
 190  117
 181  110
 149   89
 122   49
 200  165
  99  109
 131   40
 141   10
 183   75
 130   68
  44   34
  77   94
  48  169
 114  156
  70   81
  86  116
  61  111
 149  181
 125  117
  65  101
 126  149
  25  189
 109  167
 181   48
 106  174
 195   25
  39  106
  57  101
  26  101
  64    8
   7  170
   6    8
 151   86
 102   35
  21   97
  82  130
 154  144
 171  198
  39   42
 178  139
 200   62
 163  136
  84   92
 174  190
 144  129
 133  164
  46   32
 178  130
 159  150
 147   52
  65  198
 144   65
  63   38
  21  159
  79   36
   9  179
 142   17
  16   95
 177   91
  49   79
  32  104
 169   86
  39   84
  20  161
 146   94
  86    8
 113   55
 153  166
 149  187
  40   37
  74   98
  15   52
 176  119
 144  142
  35   30
  71  104
  41  143
  64   70
 196  148
 187  172
  71  172
 128   82
  59   97
 130  102
  72  113
  75  195
  78  110
 104  120
 148   38
 158   12
  29  150
  69  196
 100   12
 113  164
  65  110
  13   68
  97  107
 129  178
  55  174
 160   52
  32  192
 124  137
  98   54
 172  102
  38   61
  99  147
  13  140
  60  127
  74   22
  85  166
  32   48
 166   26
 135  151
  81  159
 180   85
 199   31
   2  124
  10   86
 164  178
  20  137
  50  180
 151   53
 181  155
 187    2
 133   82
   6   30
   3   42
 182   80
 188   36
  93   13
  70   29
 120  189
 116  178
 119  163
 112  147
 118   27
  52  186
 166  175
 136  116
  62   53
 107  187
  57   13
  33  106
 101  112
  25   99
   7  138
  41  157
  37  124
  17  128
 121   38
 154   30
 198   17
  79  172
  26   47
 122  125
  80  117
 167  178
 156  170
 133  112
  39   74
  54   15
 102  196
 168   76
  65  172
  22   59
  86  106
 184   99
 117  194
 166  140
 161  149
   9  163
  85   33
 198   79
 176   86
 103   90
 169   25
  15    1
 101   45
 114  166
 157  124
  98   70
  87    3
  89  190
 140  188
  76   80
  26   30
  81  171
  68  191
 147   24
   5   30
 148  194
 153   52
 102  189
  64   36
 114  197
  81   56
 124  149
 118  188
  24  188
 138  182
 173  192
 105   19
 121  106
  26   96
  19   49
 123  108
 133   60
 194   65
  73   32
 179   33
 137  161
 166  107
  86   34
 129   83
 167  166
  60   11
 152   66
  20   79
 195   31
  62   44
 187   36
  86   56
  10  172
  69  153
 116   23
  76   91
  40   97
   4  131
  29   71
 157   61
 143   98
 172  121
 141  121
 146   14
  81  118
  48  110
 157  166
  51  197
 154   44
  40  174
  37  164
 154  102
 122   87
 125  151
 107  193
  39  189
  53  199
 119  148
 199  108
  29   75
 196  179
 164   11
   2   67
  90  161
 153   13
   6   19
 153   93
  79   94
 151  173
 182   34
  51  152
 111  193
 186  135
  78  191
  18  184
  43   54
  27    4
 133   27
 187    5
 155   21
 111  138
 137  167
  67  141
  24   21
  90   77
  45   18
 116   45
   9   22
 132    9
 112  143
  24  148
  98   96
 149  172
 186  169
 164   16
 165   93
  29  151
 191   11
  99  120
 135    8
   3   39
  19  177
 117  192
 167   95
 108  134
   9   82
  86  123
  98   76
 171  109
  23  177
  34  157
  88  194
 103  112
  10    3
 103   86
 117  166
 157  170
 114   11
 172   85
 131  117
 123  171
 111  114
  22  146
   8   50
 185  170
  44  156
 172  145
 176  178
   8   92
 167  123
  43  160
  26  138
 100  151
 138  121
  92    6
   3    1
 162  114
 151  112
  84  137
  88   91
  26  176
 146   79
 195   72
 200  128
 177   99
 153   46
 131  196
  38   31
 196  171
 181  178
  29  190
 155  138
  88  165
 197  199
  76   83
  39  141
  90  108
 158   19
 193   16
  74   20
  65  133
 159   57
 134  176
  42  141
 137  105
  38  182
  17   36
  61  153
 139   99
 109  184
  18   32
  83   41
  86   25
  62  175
 110  121
 171   26
  29  174
 112   87
  59  104
  39   19
  25   41
 123  195
  50  104
  31  197
 156   63
  61   74
  51   44
  85  107
 167  188
 181  129
   8  154
  36   21
 107  145
 157   62
  48   92
  61  142
 195  196
  54   80
  52  195
 117  199
 198  182
 180   52
 138  144
  50  184
  57   78
  15   17
  69  154
 114  152
 100  197
  46   58
 116    3
  30  102
   3   74
  40   50
 178    5
  62   63
  82  114
 185   43
 162   84
  58  101
  60  152
  18   43
 122   43
 160   59
 171  159
 166  194
  21  196
  52  124
  92  200
  56  103
  69    6
  14  127
  27  156
  35   59
   3   61
 136  145
 117   46
  21   66
 193  100
 113   27
 185    1
 114   55
  61   58
  58  118
 107  197
 175   47
 120   34
  63  167
  22  171
 113    4
 112  108
 168  111
  32  185
 105   30
  43  148
  44  164
 109  105
 120   26
  83   46
  65    9
   1  166
  85  165
  88   32
 192   24
 132   57
 108   58
 176   46
 150  176
 141   64
  86  188
  97  132
  28   69
 187   83
 149   23
  61   52
   3  166
 127   10
  41   47
 189  181
  70   40
  31   91
 149   85
 101  184
 198    6
  47   23
  90  164
  87  174
 162  120
  45  117
 175   29
  15  176
 158   85
 108    1
  58  151
 194   46
 154   57
 184    2
  24   63
  89   59
 180  164
 191   99
  88  123
 200  159
 196    8
  11  100
  23  148
 155  134
 155   96
  27   31
  95   81
 150   72
  19  123
  52  139
 148  130
 138  168
 184  147
 120   62
 165  143
 101  102
  45   56
 178   39
 111  102
 145   79
  18   65
  58  137
 164  110
  49   21
 186  164
  32  170
  93   81
  25   78
 115   45
 179  197
   5   81
 162   95
 120   82
  33   51
  99   56
  29  178
 199   92
  10  140
 152  139
 102  191
 113  146
 158   63
 129  131
 139   67
 176    2
  50   37
 147  166
 139  181
 132   49
 145   59
 188   78
 168    2
  53  134
 150  112
 133   10
 191   91
  14   24
 160   62
 116   70
  78   97
  24   48
  76  178
 102  174
  31  105
  88  121
  14   34
  86  143
 128  106
 171   82
 152  174
 112   17
 101   93
  62   92
 172  188
  56  169
  77  164
  11  125
 195   39
  91  147
  97   33
  66   96
  96  151
   3   65
  75  109
  56  196
  91   10
  93   12
  19   27
  50   97
 197    9
  26  110
  70    5
  11   52
  17  106
 127   87
   4   67
 183  148
  24   96
 200  145
 156  167
  77   40
 169   97
 187   61
  59   11
  27  149
 106  152
  48   19
 199  129
 144   87
   1  172
  38  156
  15  134
  21  172
  50  169
   2  192
  72  186
 184   25
  63  164
   4  170
 103   54
  65  169
 132   41
  98  147
  49   67
 197  128
 147  124
 173   42
  48   33
  93  136
 159  112
 134  138
 106  104
 170  159
  55  141
  59  200
 182  161
 193   28
 186  110
 103   98
 167  169
  64  176
 189  182
  31  158
 133   53
 162   34
  20  103
  79   35
   1   39
  41   32
  22  133
 198  195
  77  167
 116   69
 161  190
  34   57
 144  189
  55  140
 129   62
  98  188
 150  171
  83   26
 173   73
 155   88
  95  154
 100    9
   4   81
 195   40
  92  145
  82  167
  81   10
  28  180
  97   10
  96   38
  22   65
  31  119
 129   13
 111  119
 113   62
 141  109
  81  140
 182  194
 126  188
  87  136
  67   74
 193  108
 171  189
 176  175
 116  167
 107  199
  28   35
 167   58
 119  175
 200   65
  48   86
 160    9
 161  199
  81  164
  47  185
  21   81
  24   41
  57  143
 129   34
 132  135
 173   41
 148    7
   4  114
 151  162
 140   59
 149  186
 117   42
  86  186
 186   23
  18    6
 168  198
 137   87
 160   16
 102   28
 155  160
  69  145
  79   47
 154  198
  47   44
 153  122
  93   67
 153   15
 128  118
  64  139
  26   25
  17   94
 104  130
 175   58
 162   83
  43   95
  80   74
 154   59
  20   42
  47  174
 179   27
 107  123
 153    6
 167  181
  70   62
  72    1
 180  175
  56   49
  69   33
  13   37
   8  200
 120  133
  64  138
 168   58
 187  143
 154   19
 172  193
  19   25
 173  107
 122  132
 188   99
  94   81
  49  151
 100  131
 193   42
 140  168
  75  175
 189  106
  61   84
 175  161
 104  126
  14  108
 154  159
 154  143
 113  200
 182  129
 132  180
 181   23
 195  151
  62   39
 177  150
  13  139
  35  131
 174  185
 154  153
 186  142
  74   30
 166  152
  72  128
  87   95
  95   77
 104   69
 164   52
  31  131
 107   22
  15   41
 194  152
 128  125
  73   85
 153    2
 186  182
  88   30
  42    7
  69  194
 193   86
  48  103
 107  181
 123  110
 101  179
  87  114
  67   87
 174   88
  19   75
 197  144
  97  150
 160   44
 135   72
 182   49
  34   24
  33   46
  97    2
  87   39
 121  178
  45   31
  95  117
  24  138
  39  175
 106   27
  56  183
 173   45
 165   84
  60  144
 167  147
  38  176
  14   96
 157  165
 144  181
 160  139
 104   47
  68  164
  63  174
 134    7
  86   20
   1   23
  25  104
 154   56
  36  140
  80   57
  30  155
  45   65
 158    4
  49   98
   5  154
  38   27
 112  118
 128   36
 111   46
 165  129
  70  138
 138   99
 138   14
 166  124
  28   75
 136  182
 187    9
 116   85
 107   71
 140   86
  10   94
 154   88
  94  189
 123   28
 149   81
  65   31
   4  172
 129  153
 151  175
 121  115
  58  143
  78   82
 152  159
  47  154
  45   91
 183  139
 102   10
  55  119
  49  167
  60  103
  89   97
  59   86
 115   34
  43   48
  81  117
  78   54
  24   78
  26  200
 186   20
 127   67
 148   10
 141  188
  70  142
  87    6
  54   51
 190   28
   7   13
  18   25
  37  141
  75  168
  95  181
  63    9
  92   22
 154   62
  15  105
   3   14
  43   29
 173   29
 195   90
  92   95
  19  129
 196  187
  82   72
 169  161
 114  134
 192   43
  12   68
  86  150
  71  159
  17  176
 113  188
 133   49
  60  116
 188   70
 171   70
 132   89
 158  113
  70  115
 182  146
 116  139
  42  140
  38   15
 195  149
  71  165
 128  196
 126   77
  98   56
   4  126
 110   33
 135   35
 117   57
  12   36
  98  127
 129  105
  34   12
  97   45
 136   58
 199   36
 160  151
  27   50
  84   43
  75  190
  46   16
  50  102
  13  175
 172  164
  81  167
 161   77
  62   11
   3  110
  28   56
 189  153
  63    8
  86  138
  64  112
  50  145
 142  184
 157  131
  36   25
 125  103
  94  134
   4   80
 140  142
  27  178
  78  101
  12  175
  62   76
 194  176
 177  163
 199   27
   8  179
 198  111
  46   98
 169   58
  23   55
 147   84
 191    6
  91  174
  40   35
  29  100
 155   28
  19    5
 179  133
  70   51
  23   29
  76  107
 171  141
 154   25
  85    4
 126   44
  41   58
 132  173
  98   79
 111  136
  13   85
 187   13
  91    1
  84  154
  37    5
 106   26
 135  139
  86  112
  37  144
  70   17
 150   44
  90  127
  25   83
  13   35
  73   23
 130  116
 113   36
  45   55
  51   56
  85   69
  23   30
 184   66
  31   35
  43   57
  15  143
 121  199
  57  172
 121  116
  31  142
  11  107
  89  135
  74   46
  90  125
 191   14
  17    8
 186   73
 146  177
 131   92
 135   15
  66  124
  25  166
 159   29
  82    4
 123  127
  94  105
  15   26
 130  160
  11   92
 144  108
 104   39
  24  108
 183  170
  24   33
 199  109
  47  138
  84  110
 134  160
  56  192
 101  137
  38   13
  31   73
  83    4
  90  135
 148  123
  41  105
  38  197
  53  119
 173  166
 109  103
 153   82
  37  183
 149  136
 117   60
 179   78
 106  175
  44  105
 137  133
 113  106
  90   53
 138  123
  75   98
  46  177
  99    6
  36  106
  72  143
 175  149
 114  191
  79  182
  29  157
  68  189
  66  119
  33    3
  33  167
  74  166
 171   97
  10   80
   7  129
 183   90
 159  130
 173   34
  72   97
 122   85
 144   64
  53   37
 195   14
 101   35
 121  156
 157   64
  15   42
  15   87
  57   79
 123   59
 196   22
 161   37
  65   52
  35  164
  76   48
 103  106
 150  169
 174  164
   8   34
 119  154
  94   46
  23  140
 142  192
 154  186
  31  150
 184   20
 159  100
  20   13
  89  187
  51  156
  58   89
 141   44
 133   61
 114   15
 200  170
 162  189
  83  173
  90    6
  84   54
  19  109
 146   81
 151  114
 174  167
 171  165
  55  125
 190  193
 142  117
 143    3
  54   40
 172   52
  43  112
 117   71
 100  200
 197   86
  34  170
  83  131
 118   16
   8    1
  35  171
 165  163
  32  131
  54   87
 146  139
  81  193
 175   54
  31  160
  23   14
  71   99
  16   32
 168   19
 191   76
 188  160
 163  100
 153  161
  98  200
  78  172
 163   24
 152   10
  44  151
 115  124
 153  197
 143   51
  57   41
 186    8
 155   32
  16   15
  16   63
  78   47
 173   14
  17   48
  91   80
 128   32
  45  198
 193   89
 163  111
  12   50
 186  195
  79   55
 115   31
 176   76
  42  167
  15  138
 189   85
  82   69
 135  182
  84  143
  30   19
  22   82
 150  121
   4  100
 116  125
 142  156
 140  163
 195    4
 193  180
 159    2
 187   44
 142  166
  69   62
  99   86
  41  185
  51  150
 190   78
  97  118
  19  153
 168   95
 152  128
   7  187
  91  136
 122   14
 109   48
  88   97
  34   59
  43   83
 133  116
 152   67
  55  128
 162  176
  29   28
 159  181
  12   83
  79  121
 137  116
  61  112
  17  153
 157   15
 161   86
  19   89
  45  195
 124   72
  62   42
   4    2
  91  135
  34  166
  33  100
   6   61
 122  183
  59   72
   4   50
   1  155
  64  135
 157  143
 163  171
   4  138
  88   70
  90   40
  43   25
 112  172
 125   72
 153    5
 184   85
 115  180
 132   42
 112    5
   8  144
  35  144
 147  200
  39  151
  42  200
  64   79
  35   74
  77  122
   6   22
  30  115
 186   69
 173  199
 118  115
  32   95
   5   96
  32  106
  38  103
  91   33
  15   68
 185  193
  92    9
 176   95
  89  121
 162    4
  70   25
  29   13
  10  176
  37   72
  44  102
  64  118
   3  165
 128  136
 152   14
  40    6
 124   34
 148   50
  15   90
 198    2
 165  116
 143  168
  14   97
 103  189
  17   38
  88  145
 191    3
 192   38
  83   99
 171  102
 165   20
  43  144
  25  109
  98  171
  45  170
  47  159
  71  118
  34  155
 126  179
 150   65
 115   59
 127   92
   8  158
 105  200
 129   47
 119  113
 112  113
  68  160
 129   72
  33  168
  15  166
 133  155
 131    1
  98   91
   7   75
  14  156
  18   80
  43  115
 188   16
  82   43
 148  147
   8   85
 175   55
  72   62
  22  168
   2  161
  35   16
 146  197
 171  130
 121  140
 200  120
 190  120
  30   60
 106  148
 163  126
 138  196
 112  190
 177  187
 176  127
  93  182
  78   66
 116    8
  30    8
 199   71
  84   21
 183   34
 123  162
 128  123
  14   41
 136   39
  87  169
 144   81
 134   28
  86   42
   6   48
  24  190
  23  127
  10  164
 196  173
   8   31
 127   37
  64   13
 114   52
  96  107
 129    6
 105   18
  93   70
  54  111
  71   70
  40  171
 130  131
  42  107
 163   87
 125  179
  44   77
  38   30
 193   80
 180   63
 113  198
 157  161
 130  129
 192   61
   7  167
  83  175
  86    6
  90   26
  63   98
   5    8
 165  158
 193   13
  72   61
  36  150
  27   28
  79   90
 176  155
 147  143
 144  139
 184  137
 153  168
 155   68
  64   41
  75  139
  86   67
   4  146
 117  159
 180   39
  25  176
  18   41
  74    1
  55   68
  85  175
  51  199
  38  165
   1   19
  30   95
  72   58
 103  139
 196    4
 104   37
  11   29
   5  132
  99   15
 156  191
  99   54
 130   34
  42   44
 151   83
  61   56
  26   80
 195  120
   9   76
  47  108
  39   68
 100  114
 109   12
  71   38
  39   12
  97  119
 189  186
 102  167
 134   98
 113   88
 100  112
  89  145
   8  180
  18  107
  30   73
  80   70
   3  164
 127  102
 178  135
 135  113
  63   67
 103   36
 155   49
  24  150
  37  115
  81  175
  43   97
  69   20
 125  145
  44   88
 179  188
  52  142
 126  178
   8  160
   3  120
  49  119
   8   56
  12    9
 174   21
 131   30
 159  138
  97  120
 141  105
 188  163
 149  163
  30  167
  96   45
 149   10
  61  171
 141  186
 131  198
 146  156
  16  155
  38  124
 110  137
 191   94
  90  180
 157  153
  53  194
 191  177
 118   18
  71   86
 177  145
 179   14
 140   21
 179   91
 170   76
 157   70
  30    2
  46  107
  62  187
  49  139
 106   76
 126   79
  55    7
  49    5
  42   72
 133  115
  63   95
 132   73
 190  107
  24  160
 134  141
  57  125
 138  179
 114   54
  84    3
  41  178
  72   26
 177  109
  12  148
  23  142
   5  170
  65   89
 186   50
   8  173
 193    3
  25    2
 158  150
 168   67
 184  131
  13  164
  71  113
  24   68
  65   11
  20   96
 103  190
  73  148
 148   30
  12   24
   6   34
  21  115
  29  162
  79  165
  81   37
 172  126
  13    3
  57   22
 119  107
  25    3
 144   71
  25   81
  98   97
 144   21
 135   16
  54    8
  84   35
 177  179
 169  149
  13   19
  33   58
 193    6
 117  135
 183   77
  76   30
  38   55
   9  117
  58  194
 176   22
  36  149
 188   57
  33   37
 191   18
 170   98
 175  178
 172   54
 145  187
  10   49
 124  119
 168  165
 119  153
  69   14
   1   80
 100  185
  90  175
 125  170
  61   63
 156   78
   8   43
 196   43
 127  183
 149   58
 107   29
 117  184
 189   93
  18  141
  38   59
 103   69
  25  150
  10   35
 146   38
 152   87
  89   41
  35   89
 140   97
 159  180
  55   52
  56   64
 168   72
  38  149
 187  148
 104   10
  19  117
 173   79
 143  130
   1  188
 182    4
 121  162
  98  175
 101  135
 129  175
  45   61
 128  159
 175  186
  11  178
 146  110
  36   59
  29  101
  62  171
 181   50
 169   51
 177   63
 162   61
  38   50
  89  108
 169   79
   2   73
  33   35
 161   96
 107    5
  51   46
 107    7
  26  160
  92   57
  70  149
  46   71
   1   97
 151  141
  62   65
  87  123
 125   30
 117   15
  59   32
  37   14
  54  180
  91  134
  32   39
 100   36
  74   93
  89  184
 152   15
   3  109
  59  114
  90  126
 165  176
 138  137
  82   60
 150   40
  53  129
  46  134
  89  194
 126  167
   3  182
 168  180
  53   20
 122  129
 146   29
 168  106
  62  111
  25  117
   2  156
   3  178
 134  124
  95   58
 142   21
 140   33
 170  143
 110  183
 129  184
  69   92
 155  157
 185  109
  50   75
  38   45
 131  165
 112  140
  82  150
  46  136
  24   39
 127  163
  99  172
  95  149
 144   67
 117   29
  25   22
  53    1
  81  179
  76  174
 150   39
  88  111
 195   21
  91  149
  87  158
 164   53
 136   48
 165   59
 162   73
 126   73
 151   25
  50  188
 144  122
 132  112
 120    9
 136   38
  55   88
   3  140
  53  149
  28  109
 196    2
 182  116
 112  158
 140  117
  39   96
  89  116
 142   74
 168   20
 100   38
 153  150
 165   34
  40   34
 174  187
 179  155
  66  149
 199   87
 185   17
  32   57
 189   51
  83  168
 199   26
 164   80
   6   63
   6  197
 163   62
  48  164
 130  200
 120  139
  11   32
 149   96
 148  169
 193  188
 132  148
 139  133
 134  195
  66  112
 190   65
   8   10
  29   46
  65   67
 196  183
  99  176
  65  125
 196  172
  41   79
 132   93
  14   83
  89  167
  86  133
  44  137
 183   35
   8   72
 180  108
  26   32
  19  145
  16   30
  53  162
 188   45
  10  150
  24   52
  30   39
  70  182
 103   13
  59  141
  21   10
 134  175
 115   52
 168   70
  59  134
  61   83
 151  178
  97  175
  96  153
 182   52
  95   28
  28  119
 164  158
  19  142
  89   20
   8    4
  21   19
  68   87
  42   51
  74  124
 100   26
 105   62
  28   68
  44  110
  27   11
  18   55
  13  109
 130  120
 191  198
  39  170
 118   98
 155   27
 155   66
  94  116
  62   67
 189   22
  31    2
 174   85
 175  102
 134  179
  78  163
 192    6
 110  153
 124  186
 149  104
  53  193
  13  174
 119   10
  43   30
 100   53
  87  165
  83  101
 123  172
   7   27
  58  111
  75  115
  59  186
   2   52
  36   54
  93  196
 107  116
  60  172
  88   27
  16   78
  45  167
 132  117
 193   54
 103    2
 192   95
 197  123
 148   79
 183  197
 185  127
 142   29
 146  111
 125   89
  17  169
 169  188
  99  153
  40   55
 134   89
   7  200
 118   88
  67   77
 150  162
  42  100
 159  119
 115  126
  44  139
  86   96
  37   21
 182  143
  83   23
  94  188
  41  165
  56   80
  44  125
 145    5
  46  170
 183   82
  63  146
 183  134
 129  145
 110   93
 179   77
 124    8
  38  190
 161  144
  54  200
 177  173
 177   87
  80  123
 101   38
 175  195
 145  153
  38  116
  11    1
 137   49
 121  136
 172  177
 144   79
  22  190
 145  111
  78   21
 111    5
  91  130
 124  108
 105   37
 196  174
  37  169
  76   75
  82   54
 113  192
  24   10
 123   24
  23   62
 151  124
 128   89
   1  159
  13   62
  30   57
 105  158
 112    4
  32  105
  93   55
 164  141
   9  154
  60   78
 111  176
 199  194
 180  178
 178  138
 193   45
 128    1
 151   62
  46  174
 185  172
 102  115
   2   10
  72   86
  48   20
 119   39
 174   30
 191   52
 180   25
 113  143
  95  165
 123  160
 183  179
  29   51
  31   61
   9  140
 105  187
 194  115
 106  184
  92  111
  52  184
  56    2
  57   68
 196   25
 122  121
  28  144
  66  167
 151   80
  16   72
  90   87
  73   10
  32   60
  55  188
 196  162
 119  193
 152   18
 149   84
  28   89
 197   74
  84  184
  31   64
  16   80
 145   27
  41   27
 106   15
 173   63
 112   12
  60   79
  48   78
  89   84
  65   17
  88   82
  45   60
  84  178
  44    6
  89   34
  34  158
  98  137
 107  183
 140   25
 106   58
  35  172
  39   69
 105  117
 104   19
  36  131
 124   54
  88  103
  73  153
  24    4
  44  169
  86  108
  19  106
 187  198
 136   11
 175   51
 157   82
 200  152
  17   68
 191   45
  88   57
  64  125
 161   46
  27  100
  21   74
  92   35
 114  169
  42   58
 118   57
  59  126
  56  111
  98   27
 155   38
  87   91
 180  104
 190  122
  21  121
 128  187
 176    5
  91   95
  97   20
  56  148
 154  196
  11  140
  12   25
  13   59
 194  161
  75  130
   5  180
 160   19
 108  128
  64   49
  95  147
 154   98
 198   59
 147  193
 168  192
 130   71
 128   24
 184    6
  16   22
   8  123
  61  144
 132   70
  34  134
 164   74
   8   40
 109   91
 138  171
 112   77
 158  131
  42   17
  26   12
  19   33
  50   69
  94  166
  18   47
 146   10
  59   67
 145  138
  24   15
  44   92
  42  153
 184  179
 100   32
  31  109
  49   42
 177   40
  63   23
 148  165
  57  108
 150   54
  72   98
  82  135
 120   67
 150  122
  16  144
  71   62
  93  197
  20    3
 188   32
 196  200
  35   98
  38    3
  40  115
  14   61
 199  190
  66   55
 135   31
 146  181
 156  115
   6  169
  47   72
   6  109
 105  150
  53   12
 106  118
  86  177
 103  199
 197   73
   9  167
 141  102
 148   75
  85  185
 175   21
 196  144
  65   90
  75  118
 123   47
   1  164
 130   35
  41  187
 151   85
 144  182
 119  156
 158  178
 163  191
 175   87
  54   24
 137   22
   7  169
 161   66
 158  130
 109  100
 157  122
 170   65
  79  187
  71   42
 138  108
 170  148
 119   84
 163   57
 140  187
 162    8
  48   39
  11   19
  25   52
 150  113
 168   64
  19   41
  56   40
  74  116
 163  183
 189  116
 136  194
 147  105
   7  188
   3  131
 127   42
  49   90
  84  197
 124   73
  24  169
 124   18
  44  132
  53  128
  77   23
  61  138
  55  126
 185  144
  21   20
 198  144
 192   90
 101  142
 119  135
  64  126
 121   11
  11  171
 174   69
 175   22
 198  105
 120   15
 142   55
  49  146
 182   37
 109   94
  93   43
 163   29
  53   35
 151  145
 154   67
 122   11
 127  171
 169  106
 107   72
  35   77
 198  151
  64   16
 194   97
  69  161
   1   76
  79  103
  71   88
  24  129
  55  106
 193  125
 165  113
  32  152
  70  144
 170   16
   9  141
 177   70
 136  200
  76   32
 192   13
 171   58
  40  120
  90  199
 197   14
  84   75
 105  116
 124  199
  22   20
  25  143
   2  185
 192   51
 181   96
 130   78
 135   45
 104   87
 126  150
 189  107
  70  195
  87   12
 104   23
  14   54
  50  124
 110  197
 166   33
  41   21
 195   19
 146   33
 190   94
 152  170
  26  141
 175   31
  74  118
  22  183
  14   20
   4    7
  17    3
  16  114
 142  119
 185   45
  72   79
   7  140
 110  108
 118  192
 152  193
  56    6
 196  130
  37   59
  43   27
  47  109
 136   52
  43   20
 100  169
 142  106
  47   99
  66   52
 181  156
 192  158
 133  153
 128   98
 160   99
  87   36
  83   29
 139  155
   2   34
 120   91
 156   24
  80  197
  61  183
  94    6
 154   35
 115   72
   8  169
 161  129
  66   69
  15  131
  67   32
 174  179
 171  190
 125  169
 113    6
 130  127
 106   59
  29   47
 114  117
  74    6
  67   51
 152  173
  72  123
  88  144
 103   41
  71  157
 117   41
 197  129
 185   59
 144  116
  36  136
  40  122
 161  174
 168  115
  13   91
 135  111
   5   76
  46   42
 140  199
 188  142
 136  147
 145  140
 154   72
 148   66
 170   67
  77   92
 137  153
 186  193
 174   57
  16   74
 127  119
  31  138
  55  102
 148   94
 123   22
  59  178
  34   90
 165   80
  86   95
  44  157
  46  182
  26   78
   6  117
   2   40
 176  166
  11  117
 193  160
  79  124
  54   94
  40  146
 187    3
 141   90
 127  129
 161  128
  63  191
  50  197
 186   91
 173   78
  92   87
  19  176
 174   16
 159   99
 190    2
 103  188
 104   65
 141  154
  65  115
 108   18
  49    1
 112  134
  34   33
 170  176
  10  130
  71   44
  98  168
 126   78
 118   39
  59   16
  42   14
 138  189
 157  192
 100   16
 159  102
  29  179
 105   55
 119  137
  89  157
  33   72
   1  140
 134  188
 141  125
 168  163
 167   25
  96  125
   3  100
  67   54
 122  107
  70   99
 168   87
  27  192
 176  137
 143   87
  35  121
 150   47
 154  109
 146   71
 177    2
 101  147
   2  136
   4  155
  27   44
 187   38
 151  103
 141   49
  52   23
  29  171
 147  121
 119   50
  24  101
  54   57
  96   18
 135   33
 165  162
  52    1
 123  104
  84   50
  36  166
  36  197
 127  170
  67   31
 118   48
  57  191
 178  125
 121  161
  52   72
 132   75
   2  172
  69   41
 164   57
  81  101
  41  163
  37   18
  26   56
 176    1
  14  130
 187  173
  16   66
 180   75
  75  100
 122  186
  71  120
 136   61
  57  121
 193  103
 112    3
 129  171
  42  162
 136  125
 191   62
  85   98
 195  181
  76  150
  68   79
 180   57
  59  176
 107  128
 122  109
 180   76
 172   63
 118  143
 168  196
  79   40
  85  137
 180  112
 167  199
 180   94
   2  138
  16  131
  85  145
 109   76
  60   47
 161  109
 131  108
 140   70
 164  139
 154   24
  96   88
 192  191
 131  191
   7    1
 118   79
 102  153
 105  128
  80  200
  11   87
 148    5
 127  196
 121   39
  94  121
  85  129
  29    3
  55  122
  85   68
 189  139
  27   34
 109  181
 172  167
 125   71
  58  176
  29   10
 196  192
 123    2
  30  159
  89  192
  93  191
  94   23
   5  138
 173  105
   5  189
 119   52
 186  199
  54  115
  34  109
   3  181
 100  165
  32  176
  21   26
 187  186
  69   25
  78   84
  73    4
 152    5
 155  199
 186  177
   5  162
   6  185
 106  170
  71  160
  32   96
 120  154
 163   76
  33  105
  78  109
  64   75
 181  131
  64   46
  21   91
 191  126
 155   80
 127  187
 182  171
 163  121
   7  147
  60   14
  42  130
  11   69
 168  149
 110  100
  46   54
  91   65
   7   68
  82   57
  45   90
  36   26
 152   47
  10   87
 191  170
  24  165
  45   80
 128  153
 105  192
   9  159
  52   50
 188   85
  61  143
 154  135
 167   86
  22   38
  85   28
 126  197
  70  189
 160  190
 191  148
 129  195
  40   98
 145  163
  98  138
  91   46
 198   64
 191    1
 199    1
  24  139
  86   51
   1  169
  63  101
 108  158
 126  131
  77  180
  54   62
 170   19
 131  103
 146   41
  88   68
  90   12
 126   96
  28   17
 148    8
  50   90
 164   71
  36   56
 138  161
  11  166
 158  142
 157  119
  15   84
 162  147
  24  178
 176  200
  62  152
 103  191
  58  189
  83   45
  39   63
  27   89
 118  124
   8  150
  92  180
  57   94
  87   34
  34  192
  42   24
  52   17
 195   41
 198   97
 184   47
   5  114
  82  164
 173   62
 163  144
 147   76
 142  174
   3   54
 107  150
  59   23
  37  133
 139   63
 151  104
   6  138
 157   76
 179   23
  67  189
  15   93
  11   48
  51    7
  91   20
   2  115
 189  123
 154   87
  67  145
 131   95
  58   27
  25   97
   1  190
  76  135
 118   17
  50  106
 124   15
  33   41
 123  194
  17   30
  61   21
  64  199
 160  103
 152   91
 169   43
  46  123
 181  175
  89   56
   3   44
  25   65
  54   90
 126  143
 190  180
 107  169
 100   20
   8  125
 127  120
 160   67
 145   60
  73   19
  54   12
  60   50
   5   65
  11  199
  82  165
  66  111
 194  169
  93  186
 190  181
 168   11
 196  181
 166   47
  90   17
  46  105
 143  144
  11   23
 110    9
 111  125
 183  116
  29   26
  97  110
 105  160
  44  200
  44   84
 158   29
 110   22
 111   17
 169  152
  71   15
  82  156
  18  123
 157  193
 156  178
  10  191
  17  116
  66   38
  11  150
  89  200
   5    4
 109  130
 173  142
 170  197
 111   25
 130  162
 180  118
  24  124
 167    8
 122  170
 191    2
  35   85
 189   92
 100   73
  24  181
 160  177
  30  157
 151  174
  96   93
 150  199
  10    9
 122  164
  26   17
  18  194
 186    6
 124  123
 170  130
  80  170
 188   18
  45    2
  73  106
 139   70
  30   99
 132    3
  55   16
  61   22
 161   67
 156   41
 125   83
   9  102
  29  122
  79  181
  92   82
 126   63
  86   79
 158  123
  49   48
  31  162
 105   92
  68  129
 125   42
 162  122
 165  172
  32   54
 103  122
  34   58
  31  117
 157   87
 197   76
 189    6
 179  140
 196   34
 113  102
 183  173
  15   55
   6   14
  89  124
  34  156
 189   13
  86  122
 185  186
 184  186
  73  116
 116   39
 124  130
  93  194
  14  114
 156  135
  67   58
   8   61
 174  192
 190  157
 107   90
 107   52
  68   91
 147   61
  92  147
  95  170
  96  172
 132   45
 180   91
  51   24
 199  198
 129   71
 159   11
  46  184
 155  195
  89  158
 151    8
  44  167
 111   93
 157    9
 112  191
  86  199
  95   25
  11  163
   6   55
 112  156
 135    3
 185   36
   4  128
 131  156
 117  130
 140  190
 189   40
 142  163
 173   65
 132   63
  13   82
  93  116
  83  158
 150  200
  60   96
  29   16
 144   89
  84  160
  45   24
  64  147
  90  109
  18  151
  92  119
 113  163
  50   79
 187  124
 108  179
 125  126
 129   81
  91  159
  72  167
  11   83
 115  146
   2   64
 127   83
 110  138
  29   50
  28  114
 188  175
 116  135
  76   27
  61  193
   1  196
  92  136
 175   20
 141   43
  58  128
 124   28
  53   79
  41  164
 107  158
  26    2
 129   92
 110   31
 191  111
  56  115
 160   34
 110   37
 184  164
 141   50
  42   48
  95  153
 121    2
 191   95
 119   91
 158   58
  71  183
  99   73
  91   28
 121   72
  28   72
 110   35
 136   69
  69   57
 123  198
  57    7
  38  141
  29   80
   7   87
 199   81
 165   99
 132  176
  23  112
  77   20
  30   15
  41  180
  23  131
 197  101
 114   99
  35   75
  55   63
 153   23
  38   44
  19   57
  79  164
 182   24
  29  105
 130   61
  97  127
 155  123
  73  109
  14  137
  93   75
 198  121
 170  113
  11  197
  82  143
 187   94
  28   67
  82  181
  78   10
 126  181
  99  161
 137  165
 152  176
 122  140
  10    1
  69   58
 198   84
  88   23
 135  106
  66   24
 133   13
  36  134
 190  143
  60   10
  47   67
  89  174
 130  194
 104   43
 192   14
 137   60
  88   87
 157  147
 180  182
 197   63
  88  198
 149  159
  66  120
 195  141
  97  185
 135   23
 195  143
  37  145
 121  165
  28  131
  35  134
 108   94
  66   91
 127  101
  38   85
 174  115
  50  170
   2   88
  95  177
 171   87
 146  122
  90  100
 128  129
 169  158
   2    6
 154  118
  91   51
  66   39
 155  166
 109   30
 105   75
 111  200
 148   25
 195  112
   9   97
  25   66
  61  115
  31   93
  99   62
 102   49
  48  178
  48    8
  69  188
  45  119
  61  163
 135   52
 150   90
 112  186
 158   18
  90  131
 122  104
 154   27
 148   97
  96   52
 159   51
 190  111
 119  173
  51   64
  73   51
 112  120
 143  114
  33  131
 156   11
 169    3
 141  148
 115   57
  68  111
 158  167
  87   60
  33  120
 198   70
 148  186
  54  191
 126   33
 163  184
 163   31
  59   85
 102  114
 178   88
  33   27
 144  149
  80    8
 174  155
   6   26
 199   22
  52   33
  79  183
  24  162
 146   30
  57  157
  95  126
   7   93
 115   16
  23  168
  57  139
 154  194
  29  110
  52   75
 158   39
   3   69
  54   52
  32   29
 190  134
  75  199
 190   68
 131  125
  42    9
  38   52
 128   48
   5   20
  41  119
 100  130
 190  123
 113  108
  58   92
 133  128
 184    9
 106   94
 169  164
 121   54
 107   75
 108  135
  15    6
   1   78
  90  194
  78  168
  72  157
  13  127
  31   29
 193  123
 124    7
  20  198
 113  199
  27  103
 134  151
   4   61
 108   28
 110   75
 114  135
 139    8
  98  179
  74  167
  26  159
   4   94
 157  188
 200  144
 144   48
  95  183
 161    7
 130   17
  23  139
  31   94
  84   66
 185  184
 140   76
 110   19
   7    9
 134  147
 118   60
  65   87
  69  114
 149   63
  32  111
 200  103
  45   43
  84  177
  40  196
 128  179
   2   61
  28  147
  66  160
 160   83
  18   61
 179   47
 189  133
 194  137
   5   62
  28   64
 180   70
  18  137
 108   67
  90   31
  97  164
 112   27
 146  100
 115    9
 199   96
  11   79
 106  111
 200  180
 162   36
 168  133
 171  176
  31   20
 199  127
 199   46
  53  141
  41  186
  58  114
  43  198
 200   52
  28   79
  94  156
 126    7
 189   79
 136  178
 178  113
 164  137
   1   16
 142  198
  85  163
 126   80
 166  182
  87   13
  95   61
  20   36
 150  115
  36  118
 116   83
 198  169
 169  141
 151    7
 168   24
  54   10
  67  111
 142  179
  77   14
   2  182
  55  130
 103  137
  55   96
  96  178
 100   22
  80  112
 100  132
  80  173
 101    5
 121  105
  60  123
 184   24
 177   33
 180   81
  31   25
  93   73
  86   32
  45   33
 184  177
  47  125
  91  172
  98  141
 122   53
 150  111
  29   34
  17   43
  40  182
 178  134
 158   95
 149   11
 157   11
   6  151
 104  100
 167   40
 176  192
  23   75
  51  101
 158    7
  44  147
 130   93
  40  137
  37   74
  18  101
   4  183
  26   35
 199   52
 189  180
  50  115
 189    3
 160   25
 196  120
 146  158
 123  164
  70   45
  81  155
 169   41
 128   88
 128   93
  29  153
 120   39
 109   35
 165   66
  65  175
   5  200
  45   34
 186  138
  86  115
 180  139
 168   92
 101  115
   3   37
 150  167
  82   80
  83  107
 159   31
  43  155
 152  144
 155  112
 126  139
 151  193
  39   21
 189   49
 148  107
  49   93
  64  129
 142  120
  73   13
  27   25
 191   66
 155    5
 122  148
  38  167
 110  171
 161   63
  58  144
  23   50
  61   16
 137  173
  22    1
  37   46
  55  176
 158  157
  28  106
 162   74
 161  140
 161    3
   5   57
 102   82
  32  150
  20  187
 170  103
 147   56
 188  101
 117   70
  10  144
 158   36
  32  164
  70  102
  54   85
  52   74
 183  190
 174  154
  90  160
  49   70
  98   88
  90  139
 153  107
  90  156
 176   35
  47  164
  40  135
  62  184
 200  156
 123   61
  30   32
  70  135
  45   99
  14   95
 134  135
 197   37
 156  126
  11  108
  43  159
  27   84
 194   63
  97   73
  87   18
 109  133
 110   32
 120  193
  37  108
 141  158
 166  193
   4  145
 102   20
  39  107
  45   78
 195   17
 145   77
 153  117
  80    2
 182  105
 109  152
 123    3
 194  135
  30  188
 155  147
   6   31
 166  113
  82  149
 114   26
  53   87
   5  128
 168  136
 104  137
 195  190
 191    7
  59  174
  83  169
  21  160
  79  115
  68  117
  32  191
  31   39
  20   81
  38   26
  58   47
 129   76
  25   14
  81  112
   8  108
   2  165
  65   20
   1   42
  36  184
 107   14
  71  150
  23   81
 132   21
  63   72
 103   14
  87  167
  98  159
  26  165
 189   84
 180  172
  71  132
 120   83
  20   58
  58  135
 174   98
 134   95
 132    7
  48  191
  92   63
 126  108
  69  107
 165  194
  72  117
  22  104
 133   75
 171    5
 127   77
 158  102
  68  176
   1  163
 187   87
 192   18
  96  101
  12   40
  32   83
  64  110
 161   30
   5  168
 155  105
 133   19
 123   67
 152  137
  96   72
  60   85
  68    9
  73   57
  81  178
  13  123
 141  113
 137   12
 146    2
 151  129
  23   19
 191  165
  85   14
 182  102
  57   99
 195   35
 190   18
  29  132
 154  125
 185    8
 171  119
  70  156
  36  133
 185   65
 168   13
 115   68
 153   77
 102   27
 198   22
 175  190
 128   73
 189  177
 119  155
 166  104
 154  146
 143    4
  32   99
  81   79
 187  106
  43   47
 172   25
  65  197
  93  178
 138   10
  68  151
  56  101
  83  104
  96   92
 173   25
 165   35
   5   90
  88   18
 167  101
 137   34
  86  113
 102   45
 105  199
  37  129
  27  142
 192  147
 137   29
 142   72
 175  193
  81   35
  87  138
  45  110
 111    3
  73  146
 128   15
 195  126
 108   16
 135  192
 163   84
  92  159
  19   51
 116  115
  81   68
 154  114
  42   50
  58  134
 139   85
  18   50
 183  113
   1   75
 197   64
  44   28
 143   36
 174  111
 153  180
 146   64
  57  196
 115   74
 134   42
  98  139
  38   65
  24   26
 162  102
 175  144
  58    3
 181   85
  82  195
 115  105
 116   81
 168  189
 109  102
  47   37
 120  177
  82    8
  33  165
  45   68
 151  190
  77    4
  76  120
   3  199
 143   77
  88  197
 120  116
 196   38
 182   51
   9   49
  47  153
   6  131
  70   72
 158  189
  88  122
 129   73
  97   31
  68  108
  98  117
  19  146
  87   45
  96  119
  82   37
  77    9
 154   74
  23  159
 163  161
 130   38
  88  172
  69   72
  51   37
 107  110
 117   36
  91  194
 174  160
 102  118
 129  154
 116   56
 108  167
 135  193
  97   90
  51  135
 197   95
  33  193
 103  185
 102  156
  59  179
 115  193
 177  107
  66  190
   4  103
 148   37
 117   65
  38  134
 136  130
 108  130
  43   67
 103   28
  13   47
 105  133
 162   78
  79   96
  60  159
  40   27
 137  113
  27   90
 121   81
 138  169
 181  193
 147   13
  75  123
  60  181
  67   21
  49   66
 146  153
 124  121
 179  182
 123  100
 169  134
 177    7
  42   21
 149  192
  68   35
 147  186
 133   91
  39   94
 186  146
  29  125
 160  179
 154  197
  72  112
  18  183
 139  187
 162  197
  60   58
  59  111
   8  115
  42   54
  10   25
 129  174
 141   13
   4  108
 121  101
 138  192
 183   50
 158   35
 180  158
  23  175
  24  194
  11   47
  34  172
  61  150
 102    1
  95  157
 145  176
  26   81
  11   73
  85  176
 159   89
 123  141
 141  155
 198  139
 175   71
 116   98
  68   33
 131  174
  59  159
  44  188
  44   61
 180  188
 197  176
 141   88
  60  126
 133  162
  52  120
 118  113
  13   45
  79   70
  93   30
  37   69
 162   13
 180  135
  28   34
  57   25
  63   40
 184  169
  29   76
 200   83
 124   20
 110  113
  31   21
 160  197
 116  153
  83  179
 173  148
 135   84
 185   44
 134   18
 142   39
  27   48
  97  123
 125   38
 148  184
 164  193
 116   62
  55    9
  56  157
 140  128
 124  197
  56  141
  91  112
 197   57
 182   30
  56    9
 151   81
  52   53
 190  105
  83   89
 148   84
 114  177
 150  193
 101   68
  14   32
 137  143
  33   32
  24  173
 145   26
  69  100
 198   83
 105  178
  13  166
  61  169
  75    5
 122   94
  62  199
 191  183
 156  189
 180  169
  11  119
 155   40
 121   48
  19  194
 112  167
  62   50
  30  114
  87  179
  59  192
 198   48
  92   40
 180  100
 167  164
  60  193
  67   45
  87   27
 173   52
 121   31
 139  137
  58  123
  15  187
 164  129
  69   35
  72  158
  91   53
  66   54
  49  187
  95  112
 180  114
  88   64
 120  135
  93  169
  81   57
 110   52
 106  117
 178  161
 130   81
  63   69
  99  123
  69  199
  11  128
  91  153
 155  198
  96  139
 118   46
 117   32
 122  147
 170  135
 199  133
 116   28
  47   30
 163   47
  41  111
 115  175
 184  156
  88  159
  13  158
 200  172
   2  151
  82   63
 137  199
 116   99
  81  128
  32  199
  17   50
  60   94
 106   31
 151  107
 126   69
 187   50
  90  110
 113   93
  17   88
  66  103
  86   19
 176  190
 114  103
  18   42
  59  166
 103  138
  89  188
 153  173
 117   88
 200   48
  58  113
 136  139
 134  191
  47   81
  19   97
 100   40
  26   28
 102  190
  68   31
  12   35
  52   84
 105  127
 139  108
 145   96
  12    2
 169    4
  63  145
 193  143
  79  194
  84  111
  64  174
  87   58
 149  150
 164  187
   9   71
 100   84
 107   35
 157  152
 190  128
  88   50
 140  175
  92  138
 186  168
   6  106
 154  127
  85  186
  43  113
 107   45
  81  195
 146  114
 132  124
 136   66
 187   23
  87   96
  52  198
  15    3
  33  103
 155  101
 104   77
 150  124
  39  101
 180   68
 152  165
 171   38
 131  105
 148   41
  90   99
  91   24
 142   25
 108  187
 173  200
  81   50
   7  117
  85  131
   2   33
 186   66
 135  147
 189  199
  34   23
  86  164
  44  128
 146   74
 133  106
  87  115
  43  129
  56  199
 169   32
 189   65
   4  161
 106  136
  98  157
  40  169
  56   11
 130   84
  68  179
  38  128
  95  119
 188   88
 171   79
 166   40
  32  193
  53   86
 177  118
 173   69
  15   36
 112  128
  61   94
 154   76
  57   42
  72   24
 135   65
 133   45
 167  136
 120  181
 122  139
  37  192
  70   53
  28   63
  76  189
  39  199
 175   49
 187  155
  53   93
 142  125
 194   71
 200   38
 145   51
 102   22
 109  175
 110   13
 191   46
  42  120
  97   35
  86   38
 193  145
 161   85
 165  115
 193   44
 129   20
 107  105
 102   84
 171  143
  44   10
  64   26
 150  104
  71  154
 164  165
  22  169
 126  113
 101   11
  39  174
 108   62
 156   20
  79  161
  58   38
 100  138
  77  189
 109   89
 172   77
 131  133
 146  135
 103   57
  29   56
  11    7
  96  124
 125   75
   8   71
 162  106
  11   17
  88  105
  75   10
 193    2
  88  171
  86   75
  33   83
 170  101
 172   12
  81  110
 145   21
  70   23
  72   49
  66   86
 191   29
  33  107
 146   24
 186   32
  64  190
 115  106
  71   92
   6   96
   4  173
 155   74
   1  180
 156   88
 139   71
 171  188
  10  107
  19   83
 143  127
  54   34
 171  147
  38   11
  91   15
  23   18
   1    5
 200   68
 166   75
 149   30
 178   77
  91  113
  63  196
 129  196
 133  200
 137  162
 135   96
  74  173
 173  172
  85  167
  28   92
  65   37
 125  102
  15  163
  77  146
  91  200
   5  195
 181   17
   2  134
 121  132
  84   32
 167   19
  88  162
 174    9
 175   56
 169   94
 156   95
  38  183
 159  166
  25  157
  32   65
 120    4
  51  146
 122   17
  30   29
 120   86
  17   40
 134   90
  72   55
 176  159
  20  104
   4   75
  62  179
  58   36
 130  115
  43   63
  29   84
 197  152
 172  131
 118  176
  26  157
 119   78
 101  118
   8   26
  97   67
   8  193
  10  121
 135  165
 131   80
  55  110
  71  147
  37   94
 123   54
 113  123
  88   93
  38   19
  34  169
  98   83
 155   70
  23   95
  32  167
 176  183
 129   86
 154  149
  75  171
  40    1
  33    5
   5  169
 132   53
 135   86
 112   63
  67  122
 159   53
  40   44
 151   31
 128   99
 149   56
  15   62
  34  161
 192  101
  20   85
   1  144
  62  140
  54  184
 131  169
   4   72
  42  151
 104  167
  49   44
 128   66
 180   32
  85  106
 150   20
  15  169
 103  144
  97  102
 138   69
 198   13
 106   45
  98   22
 141   11
  22  130
 192   92
 180   64
 182   28
 153  158
  92  167
 189  100
  27  182
 146   27
  60  176
  28  107
 178   20
 150   52
 200   22
 126  128
 187  195
  20  197
 192  111
  62   87
 143  111
  61   66
 100   71
  42    5
  47  189
 200  127
  17  196
 180  110
  64  167
 193   24
 148  121
  31  166
  94   83
  95   21
  23   71
  95  171
  29  116
 150   99
 101   67
  91  108
 163  124
 168   25
 156   67
  85  113
  77    2
 162   89
 196   26
  17   74
 184  125
 187   10
 187  178
 145   87
  13  148
  98  120
 148   91
 176  106
 117   85
 137  118
  28  137
  44   70
  98  106
 181   12
  93  160
  48  129
  32   52
 113   96
 136   62
  79  193
 168  119
 178  172
 139  134
  50   45
  96   75
  68   38
  25  131
  81  133
   9  153
  33   62
 143   71
  77  199
  25  134
  52  100
 173  130
  99   97
 112  130
  62   89
 198  158
  84   87
 177   69
  70  127
 195  178
  89   87
  67   95
  69  162
 168   28
 114  199
   8  113
 137  198
  64  111
 103   50
 185  157
  28   37
 144    2
 148  168
  92  196
  29  140
  96  167
  56  133
 199   40
   6  142
 184   75
  27  153
 140   58
 113  127
  35   52
 156  198
 179   92
  53  114
 102   25
 189   27
 125  165
 142   78
 170  116
 164   84
  47   20
  87    8
 140   78
 135   42
  53  116
 148   32
  93  163
  51  181
 125   21
 163  122
 189  101
  19   76
  51   21
 128    9
 114    9
  74    2
 170  153
 130  172
 194  164
  36   23
  32   72
  37   78
 110   70
 148   47
  93   84
 152   70
  24   92
 170   12
 116   43
  95  182
 142   28
  27   85
  54  126
 134  168
 163   63
 157  114
  41  109
 200   97
  63   85
  80  160
  20   33
  94  152
  78   81
  18  145
  65   10
 110  126
  10   69
 187    4
  84  176
 122  120
  90    9
  37  191
  77   50
 187   90
  27  111
 150  116
 191   33
 136   13
  69  163
  87  110
  23  100
  91   70
  16   85
  70  150
 114   23
  48  179
  45   44
  29  123
  50   46
 120  160
 170  154
  87   69
 153   89
 133  143
  45   82
  23   42
  70  134
 113   78
 154   17
 104  152
 138  156
 176  169
  75   66
  13  170
  65  100
  14  163
  86   82
  67  155
  62  103
  86  180
  10  160
  90  165
 112   57
  71   26
 191  135
  64  137
  50  137
 166  164
 172  132
  59   69
 109   29
 119  105
 139  158
  47  196
 183  187
  33   40
 158   77
 148   52
 184    8
 177   18
  73  196
 184  133
 174  109
  68   75
 159  167
 188   26
  39   59
 103   75
  59  173
  52  156
  42   78
  62  145
 181   45
 179   88
 111  128
 192   36
  25   47
 137   65
 119    4
  54  107
 162  188
  95   82
  57  182
   4   11
  33  195
 195  163
 143   96
 188  177
  95  113
 111  169
 158  132
 123   96
 168  193
  74   81
 118  136
 148  188
  19   63
 197    8
  58   50
  11   41
  73   40
 180   35
   4   86
  69    7
  26  111
 137  166
  90   37
   8  141
  24   57
 150   69
 133  194
  41  162
  53    2
  57   91
 143  120
 116  106
 131  173
 108   52
  79   42
 127  145
  94   43
  91  162
 177   30
  34   22
  96  188
  17   93
  60  195
 198   98
 125   99
 199   50
  76   69
 187  153
 190   46
  83   64
 148   90
 171   57
  95  144
 129   11
 107   55
 193   82
 180  140
 137    7
 114   48
 199   17
  58   98
  18   17
  63  165
   3   53
   6  134
 156   25
 127   45
  41  197
  11   72
 133  134
 161  142
  94  192
  63  116
  41  121
 196  136
  27    3
 128   45
  49  174
 113  129
 148   28
 188   10
 196  167
 161  119
  71  148
  34   42
 189  192
  66  158
 174   53
 157  136
 100   64
  86  130
  81  124
  79   73
  61  166
 132  103
 175    7
  83   62
  81    7
 185  199
  81   98
 172   28
  95  164
 102  106
  88   92
 178   37
  21  143
   6  132
  15  125
  76   16
 144  153
 115  162
 166  138
  62   12
 176  164
  22   80
   6  110
  93   95
 170  128
  74  106
 149   26
  65  166
 110    1
 182   94
 184  113
 190    3
  12   92
 101  166
 194   38
 148  138
 110  194
  52   28
  60   92
  77  139
 139    4
  19  182
 152   72
  16  168
  69   27
  48  142
 159   18
   5  105
  74   79
 179  186
 119   68
 129   96
  77   37
 119   19
 194   82
 172   46
  43   35
  62  141
   7  160
  19  131
 134  113
  85  192
 163  150
  12  103
  35   80
  44   94
 165   30
 126  117
 188  135
  53  140
 187  112
 107   21
  32   69
 170  162
 134   78
 111  183
 194    4
 113  180
  60   67
 109  142
 113   37
  72  166
 141  152
  61  172
  96  182
 110  163
  62  147
 134   54
 195  174
 194  145
 101   70
  50  142
  38  122
  44   48
 150  189
  59   60
 194   48
 139   51
  53  160
 130   74
  16  159
  51   63
  60  124
 124   16
  76   70
  45   88
 189   35
 199   12
  41   60
 154  133
 150  194
  63    7
  19   64
 174  119
 166   96
 188  164
   6    3
 182   14
 173  198
 146   65
 136   12
  22   68
 130   51
 168   60
 101   92
  29  180
  34  171
  25   39
 129  134
 106  181
  41  198
  10  200
 139   76
 118  132
  93  146
 137  159
  12  101
 186   28
 175  104
  81  187
  75   49
 172  124
  32   90
  74   25
 158    6
 146  121
 200  154
 110  161
  30   91
  85   41
 139   20
  90   60
  61   15
  64  188
  45  148
  13   95
 116   49
  90  191
  35  142
  82  107
 168   40
  85    9
 145   72
  91  128
 199   58
  88  102
 166  112
 173   54
 145   70
  46  104
  25  175
 145   10
 175   92
 103  156
  31    4
  67  137
  88   51
  36  164
  30  194
 104  140
  33   80
  26  113
 170   94
  59   53
   7   82
 155  177
  10  106
  12  139
  57  198
  24  144
  60  106
 165   37
 149  139
  49    8
  44  107
 101  165
  52  161
  70  194
  39   58
 102  152
 138   79
 156  173
 109  192
  49  144
   8  136
 145  137
  32  156
 107  131
 120   87
  59  162
  65   23
 149   76
  84  158
 104  197
  93   58
 192   58
  41   39
 106   81
  95  106
  49  118
 151  165
  10   93
 122  102
  14  101
 156  164
  23   87
  99   29
 107  182
 140   41
 152   31
  23  183
   4   79
 109    2
  97  190
  45  197
 180   11
  66   33
 136  144
 157  111
 107   12
 115  123
 165   39
 169  108
  81   73
 123   69
 162   79
 138   40
  45   52
  34   91
 194   39
 129  123
  27  184
  68  150
  36   47
  74   18
 110  144
 182  176
 134   30
 187   14
 112   52
  66  134
 133    7
  14   87
  24  199
 104   34
 154    3
  48   96
  92  109
  68   83
  43  156
  64  172
 129   38
 175  153
 125   34
  10   43
   7   20
  92  106
  57   23
 136  172
 170   15
 105   53
  79  192
 197   47
 152  115
  15  121
 135  103
  22  135
  18   84
  36   90
  76  185
  69  193
 118   31
 135  140
  82   10
 104  107
 194   77
  20  126
 115  139
  64   90
 192  103
  89   79
  70   78
  51  195
 149   48
 107  156
  73   59
 162   52
 118   85
 149  111
 197   78
  21   22
 155  161
 141  189
  28  169
 147  150
  97  116
 163   70
 151   34
 110  150
 171   23
 127  132
  13   17
 143  116
 157   12
 193  189
  84   57
 133   15
  32    7
 155  128
 114  129
 193   71
  76   44
 114   72
  41   78
 173   75
  94  176
 196   39
  14  132
 166  199
 102   71
 116   47
  15   12
  21   90
  27   93
  25    9
 182  153
  24  122
 181  187
  81   48
 145   24
  62  192
  51   82
  33   61
  15   85
  63  143
  51   11
 127  179
 193   36
  59   90
 131  155
 186   12
  79   33
  23  106
  25  161
 108   25
  66  195
  78  158
  11   50
  38  169
  14  145
  39  164
 177  169
 105   14
 140   77
  72  131
  23   98
  46   41
 158   26
  86  101
  46  159
   5   56
 134   37
  64   66
 193  178
  85   30
 140  172
  41  167
 125   63
 137   97
  16  161
  92   47
 193   84
  78   68
 183   87
  32  122
  39   36
 153  184
 164  109
  96  191
 147  185
 129  172
  83  176
 133  183
  76  199
 127  156
   8  147
 161   18
 167   71
  26   51
 137  114
   2   95
  10  170
 185   26
 154   77
 140   12
 198   46
  77   45
  99  140
  31   22
  31   86
 144  133
 179   63
  99  105
  47   70
 199  168
 174   56
  81   91
 116   76
 158   80
 126   89
 194  103
 160  149
 189  115
  81   27
  42   40
  23   33
 121  112
 160  115
  68  165
 142   26
 195  166
  37   11
 137   79
  75   30
  20   82
 160   17
  64   53
  95   51
 142   51
  86    3
  44   78
 172   66
  85  169
  22  115
 160  119
  28   48
 176  102
  50  107
  76   95
 100   51
 197  156
 170   68
 180  127
  17   19
 140  157
  52   91
 156  152
 184  191
  86  152
  88  183
 134  186
 129   99
 171   71
  68  141
 116  156
 115  117
  92   90
 182  191
  94   85
  10  137
 126  103
 124   95
  38   16
 142  162
  32   15
   3  180
  99  181
  11  147
  81  114
  15   73
  68  114
 173  129
  79  196
  28   42
  33  151
  90   42
  88  107
  88  114
 132   58
 171  124
  98   34
 121  196
 133   20
  46   19
 108   55
  14   88
  44   25
 181  185
  94   20
 142  126
 114  186
  10  171
  55  124
 141   84
  45   15
  59  120
  84  180
  14  125
 123  125
 188   33
  54   48
  84  183
   3  198
 153  196
  77   75
 148   77
 168    4
 165   46
  18   56
  27  122
 132   35
 156   69
  12  188
  97   87
 161  191
  32   79
 194   42
 144   29
  61  179
  48   23
 147   66
 162  125
 129  185
 139   97
  10   45
  80   96
 135  105
  40  161
 132  143
 125  133
 166  168
 145  132
 153   12
  51  138
  60  111
  31   16
  24   29
  12  149
 145   81
 195  115
  32  158
 178   62
 137   43
 105   10
 112   83
  99   74
 135  137
 146  101
  63  153
  59   95
  22  101
   3  174
 161  135
 197  189
  57  190
 197   10
  99   44
 174  113
  23  158
 112   71
  48   66
 101  191
 163  164
 146  131
 111   55
   4   89
  78   87
  14   35
 147   12
  45   92
 121  177
 166   71
 108  146
 113  140
 115  151
  91  111
 105  101
  13   10
 131  192
 122  123
  50   32
  70  176
 119   54
 167   13
  21  111
 190  164
  98   13
 112  109
  10  120
  31   71
  85   31
  16  142
 110  151
  85   72
 102   47
  63  160
  21    3
 114  128
 177   47
  41  170
 170   31
 121  144
 114  113
 104   98
  85   58
 168   57
  70   75
  25   17
  78  183
 169  196
  19   85
 163  108
  40  194
   6  102
 195  104
  14  190
  12  114
  22  158
  54   88
 124  181
   5   88
 183   55
 100   14
 186  107
 120  134
  92   67
 179  141
  21  150
 157   55
 171  181
  92  164
 104   91
 195  118
 101  106
 133   62
 166  177
 124  190
 178   53
 144   62
 195   91
  46  179
   5  143
   8   20
 165   57
  38  120
   9   43
 106   11
 196  150
  41   36
 126  170
 152   50
 139   25
   8   42
  47   86
 196  190
   1   12
  79   78
 178  149
  53  188
  59  191
  37  198
  61   37
 156  174
   3  115
 117  169
 120   79
  10  175
 106   67
 183   26
 146   35
  98   95
  60   52
 185  168
  54  112
 131    2
  92   81
 146   95
  43   34
  63   57
   1   59
  38   20
  24  114
 141   47
 167  134
 158  175
  26   76
 171   73
 110  147
 160  168
 110   49
  62  177
  10   32
  24  125
 178   21
  38   32
  46    9
   2  127
  51   32
  18  104
   5   89
 176  104
 119   33
 122  179
 122  110
 195  133
 195  191
 173   98
 145  157
 171  180
 106   78
 126   36
  64   73
  96  185
 152    1
 140  123
 120   27
 152   42
  59  161
  17   16
 126  129
 140   47
  96   49
 104  105
 178   75
  21  105
  26   99
 181  132
 122  135
  38    6
 145  184
 110   74
  15   14
  42   84
  60   70
 177  128
  17   44
  73   37
 189  154
 149   65
  47   57
 120  149
 140   45
 136   82
 177  153
  80   88
 171  194
 160   15
 118  155
 171   55
 141   33
 156    5
 140  125
  52   30
 174   44
  69  124
  48  199
 142  196
 178  119
  96    3
 117  141
  69   94
   1  135
 176   54
 173   86
   7   92
  87  125
  12  122
  60  156
  69   86
 199  176
   3   60
 179    2
  33   81
 143   99
 139  150
 199   28
  39   88
  75   36
  27   80
  15   51
 130    9
 184  132
  55  109
 108   15
  37   35
   7  128
 141  170
  63   34
 127    8
  71   48
  78  105
  92   53
  99   89
  48   13
  11  126
  23   32
  72   10
  69   80
 139   15
 191  174
  30  101
 132   47
  59  155
  20   98
  54  185
  67   84
 174   35
  48  154
 121  193
 105   91
  83   47
 148   61
 181   64
 178   68
  48  189
 129  191
  21  166
 158  135
 111   35
 148  144
   2   16
 101  117
  22    2
  17  183
  48   83
 182  142
 136  120
 122  168
 104   44
  91   55
  36  115
  27  193
 117  173
 125   60
 133  160
 170  189
 188   84
  55  137
  41   16
  25   59
 143   40
 129  169
  47  200
  35   50
  31   59
  18  175
 174  125
 131   75
  75  179
   5  137
 152   80
  21  124
 197  113
 121   55
 162   76
 198  189
  30  163
  19  149
  14  140
 132  190
  91  170
 169   64
 194  102
 111   18
  78  166
 151  128
  11    5
 150   56
  53  115
 155   10
  48  184
 162   97
 153  159
  76  133
 105   95
  75  152
  47  157
 161  134
 171   52
  91  175
  35  170
  82  158
 190   56
  50  194
 128  116
  13   50
  72  155
  15  184
  31  168
 144  106
   3  186
  15   81
 127   84
 135  110
  80  128
 174  120
   8  182
  54  188
 156   79
  81  111
 153   33
 185   61
 121   96
 184   77
   2   39
 136   25
  92  114
 198  170
 103   29
 177  197
  65  156
  24  111
  43  118
  22  161
 129  189
  83   81
 122  112
 155   93
 179  158
 177  139
  30  183
 179   34
  12   52
 111   43
  28   80
  57  148
 168   52
 172  184
 104  139
 198   61
 123  151
  47  127
 199  134
 151   10
  47   31
  35   27
 174  158
 171   42
 153  104
 121   66
 108  109
 181   42
  76  151
 152  187
 184  181
 131  179
  90   25
  79   26
 148  124
  68   20
  74  100
  15   48
  89   96
 165   60
  98   92
 104  133
 174   90
  63  151
 128  147
 200  142
  80  115
  33   44
  29    8
 150  136
 140   18
 132  108
  35   64
 157   92
  19  127
  39   97
  82  180
 200   19
 110   10
 154  185
 132  115
 188  145
 158   50
 143  115
 158  200
  68  159
  28  118
 136  198
 136  135
  16   83
  94  114
  73   95
 114  194
  29  184
  49   88
 122   71
  85  130
  37  149
  81   18
  29  186
  69   48
 156  147
  14  131
   5   79
 117  147
 104   96
 120  182
  15  115
 141  106
 174   43
 141  137
  59    4
 106   44
  22   94
 113   57
  48   70
  86  154
  10  179
 137  160
 166   22
  52   26
  29   19
 176   45
  93  114
  39  138
 198   71
  56   76
 117  145
 193  110
 185  151
  98  194
  24   44
 158    5
 125  199
 135  144
  47   28
 119  151
  36  171
 101   71
 182  112
  18  102
   6   37
  25   50
  56  109
  18   64
  93    8
 177  112
  33   25
 131    7
 188   83
 154   13
 114   65
 176  130
  83    5
 127   12
  87   22
  77  197
 115    6
 158   47
  11  175
 185  175
 158   53
  44   79
  12  110
  46   18
 131  176
 168  194
 160  163
  20  130
 162   94
  62   81
  98   43
 184  180
  89  169
 148  192
 194  198
 142   99
  37  159
 171  131
  70   54
 147  195
  35   51
 166  131
 142   45
 108  164
 187   27
 121  129
 183  178
 114   40
 138   41
 169   14
 172  192
  31  177
  67   19
  57  175
 194   61
  97   86
 166   32
 122   26
 147   63
  41   45
  11   77
  91   37
 163   17
   7  184
  28    8
 150  108
  78  136
  51   49
  93  119
  20   29
 186  120
  84   73
  85   25
 143  129
  19   77
  73  104
  38  132
 164   94
  64  162
  40    3
 181   16
  79   93
 184   98
  69  122
 161  123
  58  153
 147   81
 154  101
 103   58
  53  161
 129   31
 135  166
 162   55
 126  187
  53   95
  25  112
  93   90
  19  143
  16  112
  55   36
 126   10
 199  177
 175  171
 176   72
  72  102
  63    5
 159    4
  31   49
  66   90
  63  198
  46   40
 156   30
 124   49
 139  102
 127  142
 132  186
 151   70
  40   51
 160  140
  82  137
 182   74
  51  178
 174  144
 158    3
 167   54
 128   96
  64  117
  34  200
 148  198
  23   56
  76   89
 131   70
 159   84
  99    2
 196  114
 118   14
  85   66
  99   58
  97   30
  48   90
  32  183
   4   37
 166   69
  48  165
 172  194
 177  157
   4  110
  22   85
 123  136
  52    6
  81   86
   7  103
  79  128
 138   90
  41  199
 199  200
  69   97
   4   96
  40   53
  64   59
 130  163
  26   33
  49  172
 122  131
 143  128
 149  185
 200  175
  52  175
  71   66
  75  111
  47    1
 149  177
 189  164
  63   76
 142  191
  83   91
  70  128
  42  190
  66  180
 162  143
  38   34
 125   49
  34   96
 161  113
 119    2
   8  126
 162   62
  76   84
 129   65
 100   67
 178  107
  18   13
   6  177
 192   40
 125  106
 178  166
   4    1
 153  106
 170  184
  78   90
  20  136
 121   19
  91  183
   9  166
  79  108
 129   28
  73   62
 186  171
  87  191
 104   35
 183  198
  57   97
 109  151
 133  136
 124   94
  52   77
 116   95
  89   21
 153   64
 141   61
  54   47
 199  149
 103  165
 137  144
 106   37
  62   75
  71  169
  87  133
  40   82
  67   64
 142   41
 182  183
 121  145
  72  180
  10  136
  43   89
  65  164
  97   54
 106   99
 199  196
 174   12
 193   12
 157  105
  78  114
 103   31
  68   59
 125  157
  41  128
 142    5
 179  168
 196  198
 113  195
  89    6
   6  183
  65  130
 180  129
  80  106
 126   46
 145  185
  98  176
  26  104
  54   86
  24  117
 188   51
 199   10
 162   45
  63    1
  25  125
 133   67
 174   77
  64   91
 162   32
  85   86
 143  178
  54   22
 102   14
  75  117
  67  129
 164  126
   2  145
 159   48
 160  117
  15   23
 151   30
 120   69
 190  145
 149  153
 127  137
  76    3
  33    7
 152  116
  52   42
  37  114
  28   57
   1   21
 175  130
 123   37
  44  189
  48  105
 179   32
   7  144
 122  166
   4   65
 187  176
 148  166
 183  154
  20   66
  83  121
 194  125
  41  182
 196  113
 118    2
  87  140
   9   86
   4  160
   8  165
 157   45
 154   15
 164  105
 200  186
 110   66
 125   54
 146   82
  52  167
  45   75
  53  102
 195  106
 185   95
 142  150
  68    4
  70   24
 136   21
 128   57
 182  124
 148   81
 153   80
 117  177
  20   56
 174   19
 189  142
 141  192
  33  187
  92    4
 114   56
 189  169
 125   32
 178  127
 176  125
  72  178
 102   24
 107  103
  92  104
  96  156
 157   19
 113   83
 135   93
 199  120
 197  175
  72  199
  55   46
 138  188
 180  185
 119   76
 126  177
  42   29
 106   47
  25   58
  94    8
 200   32
 193  131
   1  139
 180   79
   7   52
  60  121
  28  113
  95  179
 126   39
 194  146
 157  120
  83   66
   8  109
  48    5
  56  104
 111  105
 179   30
  14  141
 161   98
 153   30
  26   27
 138   58
   1  134
 131   67
 148  146
 115   32
 180   44
 117   94
 133   54
 196  106
 133   26
 177   88
  70  164
 119  180
 191    8
 163  154
   9   14
   7   99
  36  174
  83   69
  17   12
 154   11
 102   29
 131   46
 133  141
  91  100
 195   87
 129   14
 116  200
 172  138
 152  155
  84  105
  74  109
 162  100
  98  183
 188  153
  33  147
 191  108
  67   11
 144  155
 110   30
 138   25
   4  180
  61   93
  17   51
   1  118
 160   64
  15  193
 184   14
 142  167
  11  145
  82   50
  52   19
  78  174
  57  126
 104  173
 121  180
  44  146
  20  193
 140  149
  69   17
 173   66
 110  178
 101   33
  56  187
 144    4
 157   66
  84  132
  18  163
 131   89
  58   45
 171  135
  93   91
 129   69
 132   55
   6   84
 110   36
  45  153
  12  102
  97  197
 188   21
 108  153
 106   46
 135  196
 161  154
  42  179
 153   14
  27  165
 134   69
  19   66
 151   90
 177    4
  21  165
 175  150
  17   92
 124  146
 172   86
  62  124
  15  136
 101  143
 121  111
 184  183
 101  116
  11  155
  91    7
 180   78
 147  139
 152  188
 114  188
 185  198
 147  116
  87  116
  15  155
 169  200
  34  150
  99  133
 137   19
 161   89
  36   40
 146   57
   2  100
 134   49
  64   52
 101  145
 186  155
 134   68
  27  143
  86   14
  19  178
  32   37
 191   35
   5   25
 152  189
  89  165
   7   96
  97   36
 171  199
 148   34
 171   17
 125   51
 129   15
  76    4
  36  112
 107    8
   9  107
  43   14
 140   35
 106   65
 173  116
  94   64
 142    2
  24  171
 126    1
  73  152
 116  131
 128  183
 195  153
 106   84
 119  181
 139  176
 159   83
 114  130
  19   95
 112  111
 174   58
 197    5
 130   13
 178  168
  29   98
 195  101
 127   54
  34  142
 155  192
  83  144
 153   39
 135   44
 176  157
 186  123
  18   35
 177    5
 162   67
  30   48
  35  128
 146   45
  52   46
  87  100
   6   12
 153   37
  60  102
 191  104
  45   79
  70    4
 155  124
 166   38
  75  156
 199  147
 199   34
 111  162
 115   10
 181  134
  89   66
 130  192
  46   39
  48  143
  60    1
 149   43
  61   36
  31   75
 188   28
  88  200
 187  129
 126  184
  60   13
  11  193
  22   71
 139   86
 158  196
  72   94
  88  182
 181   73
  11   94
 128  150
  46    7
 127   93
 112   21
 169  174
 179  194
 129  162
   7   88
   4   47
   7  123
 176   12
  51  154
 134  177
  12  197
 141  104
 159   90
  58   68
  71   74
  20   19
 142  128
 185    5
  70  165
 169   13
  88  170
 113   59
  92   93
 106  165
  16   25
  49  140
  79   56
 102  177
   6   51
   5  182
 166   14
  40   64
  54  192
 186   24
  76  198
  10  167
 136  187
 152  149
  20   83
   7  130
 121    9
  12   82
 126  116
  30   27
 102  134
 103  116
 175  183
  12   81
 178  192
  37    8
 120  113
 142  114
   4   57
 196   81
 140  178
 144  107
 185  133
 163   82
  46  116
  42   10
 145  110
 165  175
 129   94
  38    7
 144  114
  77   25
  73  166
 152   29
 146  174
  52  146
 189  161
 167  144
  54   19
  35   86
  33   98
 146  160
  95   31
 123  103
 121  117
  45  131
  89  104
  42  105
 102  188
  48    3
  91  169
  13  197
 193   90
 156  176
 109   36
  61  102
 158  156
 190   52
  48  104
 129   80
  35  155
 103  186
  19   37
 143   47
 145  146
  72  132
 101  107
 112   89
 109   59
  33  115
 178    2
 166   63
  37   31
  73   45
 108   93
  10   53
  39   37
 181   66
 168   65
 196   66
 166   79
  56   84
 177   52
  32  141
 128   76
 127  109
  34   20
  33  197
 199  159
  86   57
 140  176
 149   24
 126   32
 151  180
  98  131
 165  167
 127   48
 130   56
  80   36
 192  122
 200   35
 139  114
  79   48
 104   66
 161   38
 170  173
 139  145
  12   66
  55    3
 115  173
 132  110
  26   41
 143   80
 123   49
 102   13
 193   73
 118    8
 142  154
 119  102
  44   75
 139   28
 155   48
  67   40
  30  100
   6    4
 116   22
  77  200
 105  191
   4  115
  85  144
 180   83
 166   23
 121   70
  47  137
 121   24
 187  120
  19    3
  43   24
 197  118
 171  164
   1  141
  57  158
 127   51
  61  119
  86  145
 121   99
  99  197
 113   51
 104  184
  24   23
  30  195
 157  175
 163  181
  13  163
 168  117
   3   81
 144  160
 187  147
  34    4
 123  147
  32  190
 107  117
 174  166
  55   86
 159   94
  21   70
 141  190
 132  198
  14   12
 107  194
  97  165
 167   43
 124   65
 119   82
 173   36
   2  147
 102  146
 196   42
  51  104
  27  123
 188  189
   5   94
  23   45
  20   46
 141   31
 126   23
  55  149
 151   79
  96   40
   1   67
 112  178
  54  171
 184   94
 189  179
 100  190
 190  194
  51  187
  70   36
  79  112
  79    1
 105  113
 108   49
  96   82
  11   86
  67   37
  38    1
  68  104
  48   53
  46  200
 116  174
  43  180
 130   69
 122    9
  45   42
  12  173
 136  165
   2  137
  98  119
 179   99
  15   53
  57  179
   5  175
 120  178
 156  108
 117  191
  88  126
  79  186
  76  137
 185  113
 137   63
  71  177
 123  144
  35   94
 147   55
  99  174
  44  186
  67  196
  53  189
  62  197
  98   19
 112  114
 135  112
 194  189
  79  117
 175  167
  76   82
  32   17
 131   65
 131   51
 150   79
  45   85
  20   84
 142  171
  75  143
  73   35
 123   70
 110  116
 179  154
  75  154
  47  120
  17  114
 151   13
 159   96
 173   10
 147  145
 172  133
 140   95
  70  114
  36   71
  30  112
 163  152
  31  128
  15   95
  88   34
 117   14
  97   27
  51  115
  39   17
 186  119
 152   64
  45   94
 156  175
 130   12
 109  101
 149  103
  81  123
 193   26
  68  100
 186  188
 147   97
 193   78
  66   68
  44   95
 119  198
 153  164
  52  128
 143   64
 118   73
  70   92
 174  168
  51  176
 106   52
  40  191
 132  159
   1   92
 180   42
   8  187
 171  132
 178   78
 187   72
 135   43
   8   35
  40  180
 175  163
  21   87
  92   14
 107   43
  31  124
 129  117
  56  117
 200  162
  96   64
  31   77
 171  183
 135   77
 194  119
 179  165
 114  123
 174  118
   8   51
  13  101
 126   93
 178   43
   2   15
  14  150
 156   35
  55  177
  22  193
  27   45
 172  120
 191   61
   5  135
  29  120
  35  162
 111  116
   2   35
 141   58
  34   11
 143  106
 179   21
 175  101
 100  141
  83  192
 195   50
 180  181
  45   98
  64    5
 145   20
 118  127
  37  131
  42   95
  11   97
  13   26
  86  155
 101   49
  42  144
  75   34
 171    3
 105  169
  35  122
 171  107
 123   31
  78  146
  37  135
 142  146
 178  132
  35  148
  11  158
  54  102
  13   31
  83  155
   1   88
  13   14
  46    8
 178   60
  70  187
  53  191
 171   15
 153  148
  26  154
 105  189
  42  192
  83  181
 127    5
 102  112
  39   91
 181  166
 164  152
 104  135
 165  150
  43  125
  94   84
  43  131
  40  170
 172   13
   8  152
  94  118
 186   87
  23  165
   4   71
  76  183
 104  132
  77   47
 120   55
 171   90
  80   59
  37  136
  11   96
   9  135
 175  139
 197  117
 174  130
 198  165
  12   63
  29   53
 168   82
 159  187
 185   16
 118  187
  41    5
 145    1
  16  143
  57  194
 171   64
  56   34
 154   70
  93   62
 192   33
 134  187
  43   74
  17  126
 194  191
 141  112
  69   19
  43  189
 137   77
  76    8
   1   34
  38  143
 137   95
  76   15
 121  183
  26   74
  74   31
  24  105
  85   82
 112   62
  91  110
 187   99
   2   50
  74  101
  73   50
  67  125
  18   20
  49   23
 171   16
  89  130
  23   25
  97   38
 184   22
 162   12
  76   39
 121  200
 183   29
  53  181
  58   53
 160  121
 159   61
 152  190
 106  124
  25   88
  53  183
  87   30
  26  184
 174  112
  22  144
  75   88
  99   46
 186  145
  27    5
 157   32
 200  106
 176   53
  36   11
 103    5
 154   37
 152  191
  90  118
  33  163
 147   32
  40  185
 108  116
  34  189
 114   85
 152  130
  60  194
 191   23
  92   36
 192  166
 178   18
 195   62
  57   27
  61   11
 160  156
  53   32
  68  161
  83   49
  98   86
 125   26
   9  131
 155  113
   3   22
  70   56
  81   44
 125   92
  25   67
 199  132
  26  192
  67  112
 200    3
 150   35
 122    7
 103  146
 141   86
  41  141
  84   63
  22   15
 101  180
   1   32
  63   13
 174  182
 122  154
  67  185
 177   64
  38   51
 178  133
  53    4
  75   20
  49   86
  97   85
  99   43
 168   46
  71  140
 103   16
 199   65
 155   91
 108   39
 168  161
  24   90
 107  125
  79  143
 156   47
 139  141
 105   64
 106  191
  90   76
  88  138
 162  156
 168   99
  15  178
  29  113
 126   68
 185  118
  30  169
  96   74
 147   40
  76  148
 115   58
  39  135
 116  186
 158  110
 150  155
  99   52
 136  189
 182  152
 182  156
 188   56
 123   55
  64  151
 129   95
  57  102
  34   18
 181    6
  21   50
 105  118
 125  112
 132   28
  24   40
 128  181
 158  161
  88    8
  58   56
  36   28
   3   73
  12  144
 121  151
  34    3
  47   40
 172  128
 110  175
  88   19
 140   15
  53   73
 123  137
 109   84
  88   62
  71   78
 107    4
  80   48
 104   30
  83  128
 156  101
  58  150
 149  197
  87  188
 185  179
  19   65
  52  188
 155  103
 173  169
  47  147
 165  134
  40  129
   1   90
 190    6
  52  181
 114  171
 143  198
  24   36
   2  112
  15  196
  63  185
  18  132
 118   13
 180  122
  59  171
 171   50
 102  198
 189  160
  90   19
   9    3
 139   39
 109  148
 178  115
  29   52
 162   15
 127  104
 151  170
 197   66
  45  199
  18  155
  57   76
 124  183
  55   76
  99  157
 176  112
 132  109
  33   86
  25   53
 118   69
  74   24
  65   55
 161  197
 161  139
 152  124
  77  147
   5    7
 168  167
 160   56
 146  132
 179  115
 139  118
 165  139
  57  131
  45   12
  91  102
  73  102
 103  129
  38  153
  67   82
  10   76
 185  134
 170  115
 131   71
  65  140
 191  128
 141  166
   5  174
 173  141
 128  134
 126    9
   4   42
 135   30
 128  184
  89   95
  44  194
 153  123
 108  185
 158    9
  53   89
  62    4
 128  169
 186   82
 185   12
  21  106
 118  104
  39    9
  64  142
  60  157
 153  163
 120   57
 147  141
  44  129
  17   64
 111   31
 133   41
  91   44
 152   89
 100  157
 161   39
 198  100
 163   50
  96    9
 111  126
   9   30
  52  117
  56  113
 141   15
  45   93
 141    3
 140   26
  64  155
 157  173
 112  160
  14   44
 144  191
  46   22
 156   28
 156  163
  74  174
 108  100
  23  155
 121   76
  88   31
 166   88
  14   50
   4   84
 105  100
 200   13
  89  185
  93  187
  95   99
  60    8
 195  145
 158  133
 197   27
 179  149
 109  198
  87   47
  65   80
  74  145
  15  164
 148   17
  95   70
  51   14
 120  161
  95  114
 151   94
 179    4
  12   23
 142  133
  52  101
 163    5
  77   48
  28   23
  12  179
  94   16
 114  200
 108   32
  48   12
 164  150
 171  112
 102   33
  71  124
 182    9
 169  120
 101   23
 117  172
 173  184
  17   41
  21   27
  34   49
  68   99
  34  185
 153   68
  94  123
  58   44
 164    5
 106   14
 162   27
 126   98
 153   66
  17   72
  21   63
 157   94
 138  160
   7   21
 155  193
  93  151
 148   86
 187   98
  83  117
   2  139
  68   93
 183  162
  12  123
 118  196
  42  178
 152   11
  63  122
 183  159
 165  132
 121    6
  67   12
  11  138
 191   81
  57   62
 158  119
 166  111
  59  133
 190  170
 200   70
  93   42
 159   93
  61   35
 126   34
 147   39
 116  145
  18  110
 107  172
  36   46
  37   29
  49  128
 119   59
  27    8
 161   58
 171   60
  29   68
  88  143
 146  118
  72   75
  44   72
 187   55
 144   73
  98  158
  73  119
  50  100
  52   97
  97  182
  91  166
 144   17
  14   16
  24   16
 119  189
  35  100
  68  177
  36   68
 181   84
 195  136
  47  101
  41  122
 138  164
 180  131
 178  169
  88  109
  32  184
  88   86
 136   49
  12   61
  65   54
  84  182
 110    7
  98   47
 148  152
  21   33
  27   60
  65  158
  81   19
  30  197
 144  131
 181  148
   4   69
 195  172
 182    6
  37  167
  26  170
  80    3
 169   84
  37  143
 187  200
 142   92
  80  142
  80   41
  48  185
 190   21
  11   35
 146   23
  81   29
 194   95
 189  167
  19  187
  51   92
 133  150
 135   20
 167    2
  84    5
 104   24
  83  182
 122   31
  73  161
 123  166
  11   80
  15  137
  96    1
  22  155
  46   15
  60   43
  90  170
  87  159
  19   34
 113  179
  10  124
  57   52
  96   94
 169   42
 197   22
 138  154
  32  138
   8  106
 198  172
  73  200
 137   61
   4   19
 150    9
 197  182
  55   92
 175  131
 194   17
 100   86
 184  116
  21  156
  24  161
  88   63
  78  159
 196   51
  52   59
  82  145
 173  114
 196  110
  25   35
 134   57
 121   33
 156   22
  36   32
  48  153
 184   76
 142   10
 157  182
 171   89
   6   65
 160   88
 149   15
  87  148
 154  169
 191   73
  65  162
 109   52
  17   35
 159   38
 111  137
 124  100
 184  171
  44  116
 150   27
  49   27
  85  168
 116  164
  57  162
 118   99
   7   47
 111   11
 173  178
 101   55
  30  198
  31  157
 154  190
 174   52
 122   92
  88  184
 118  123
 177  122
 181  162
 113  145
  66   97
 149  183
 109  162
 119  191
  26  161
 199  102
 142   36
  81  150
  67   26
 198  130
  28   66
  60    5
  68   89
 123   64
 146  137
 101   53
 142  118
 114   21
  84   72
 175  148
  21   11
 192   49
 183  164
  88   11
 110  149
  93   33
 190  167
  94  173
 144   30
 151  181
  22  194
  43   69
 180  149
  55   34
   4  101
  78  165
  39  127
 113   80
 188   97
 108  178
 156   97
  11  192
  42  110
 105  126
 164  127
  68   70
 199  193
  86   73
 188   11
  76   21
 140  170
  80  187
 147  115
 188   27
  71  179
 110   60
 127   31
 192   44
  50   41
  49  115
  97  184
  67  147
  26  177
  63   91
 187   42
  32  144
 122   74
 184  111
  74  129
  48  124
   4  175
 168  125
  53  117
  83  154
  13  106
  26   10
 163  196
 165   47
   7   78
  70   86
  59   15
 105  161
 162   93
 149   71
 160   48
  12   38
  25  179
 194  132
 112  152
 166   97
  74   83
 135   47
 151   11
  92  103
 121   91
  21   43
  22   30
 145   90
  88   85
 139   69
  72  101
 129  194
  33   42
  34   78
 159  182
 121  114
 182  177
 118   65
  73   91
 114  178
 190  178
  85  110
  63  108
 183  180
   4  124
 165   74
 195  173
 149  117
 164  162
 128   67
  35  153
 199  106
  10  159
 180  142
 102   11
  17  104
 135   97
 111    2
  33   38
  36    8
 122  171
 128   68
 184   43
 142   37
  10  111
 195   36
 173  120
 120    5
 138   54
  48  161
  92   15
   4  132
 149  170
 100  156
  44  109
  18  153
  62  168
  89   90
  89   15
  45   14
 145   40
  16  133
  94  183
  91   17
 176   44
  38   25
   2  113
  25   91
 108  173
 114   79
  67   15
 116  134
   9   93
  33   74
   2  125
 126  102
 104  192
  96  160
 111  160
 125   82
 187   88
 115  119
  40   32
  49   46
  88  104
  74   29
 154  157
 130  134
 118   50
   4  123
 105   36
 193  153
 137    3
  94   59
 167  182
 108   22
 115   24
 171  118
  82  166
  47   14
  70   66
  89   46
  97   47
  28   83
 156   87
  53  200
 123    6
 180   48
  79   21
 146  164
 187   73
  11  183
  69  108
  18   94
  21   73
  31  112
 128   90
 162   54
  69   61
 104  168
  21  122
 123  117
 115  187
  66   31
  13  171
  52   69
  82    6
  95  187
 148   15
 108   26
  48  141
  96   81
  65   44
 130  179
  81  125
 101   34
 103  187
 143   93
 197  102
 102   66
  50  167
 151    4
  40   41
  94  168
 137   17
  58   91
 103   43
 151  166
 156  141
  42  108
 102   65
 200  188
  47  195
 115  141
  80   92
 107   51
  47  173
 140   48
 162   60
  21  154
  74  103
 113   41
 195    2
  96  154
   4  127
  39  123
  14   49
  29  188
 158   56
 120    7
 116   19
  89  179
 169  127
  16   52
  22  134
 162  103
  78  120
  30  130
 192   20
  69   23
  92   25
  45   95
 191   70
   2   92
  54  140
 121  187
 138  173
  20   11
  19  128
  73  145
  61   20
  75   82
 147  107
  18  174
  10   58
  25  133
  21   13
 134  180
  82  101
 158  182
   9  196
 169   69
  30    3
 169   47
 197  139
  66   30
 118   23
  98  181
  28  158
 113   39
 112   37
 199  182
  14  113
  29   73
  81    1
 180  143
  86  149
 111  131
 103  181
  54   91
 142   18
 174   62
  23  198
  94  130
  57    1
  59  187
 105   80
 112    8
 192  162
  63   86
  26  155
 159   62
 135  141
 179  195
   2   29
  40   16
 194   10
 186  156
 132  185
  53  112
 117  103
  66   92
  59   21
 154    6
 138   48
  73   72
  60   76
  59   83
 167  120
 171  140
 140  193
  68  194
 101  176
  76   61
 195  132
  41  147
  27   68
 147  164
  89  115
 126  101
  60  119
 136  122
 119  128
  81   71
   5   26
  14  121
   8   38
  73  179
 135  127
 144  102
 153  176
  41  179
  62  193
  58   71
 158   41
 190   12
  59   61
   3   82
  16  107
  55  131
 169   53
 151   98
 164  111
 177  103
 113   17
 109   98
 200   14
 148  134
 119   75
 151   20
 118   32
 124  141
  96  103
 200  184
  71   72
 168   47
 154  104
  23   66
   3  160
  97   83
 187  162
 122   45
  62   66
  22   81
  24   81
  86  132
  64   15
  91   19
  36    1
 127  141
  87  146
 102   15
  25   62
  48   91
 167  131
  15   21
  96   90
 191  155
 144  165
 156  169
 119   48
  26  197
  28  120
  21  181
  22  122
  83    1
  48   64
  26    1
  43  117
 195   12
  82  200
 107   58
 151   36
 141  116
  75  165
 151   48
 120  194
 120  150
 188  170
 103  195
  80    7
 157   46
  36  167
 121   65
  12  177
 132   80
 117  139
 165  107
   3   95
  67  180
  13  135
 166   29
  92  112
  18  143
  22   39
 159   95
  29  104
  76   77
 193   92
 171   99
  90  179
  33  170
 152  127
  67  119
 126  154
 104  117
  23  103
 184  149
 134   85
  63   50
 140   34
  89   88
  95  190
  20   93
  96   70
  80   81
  40    4
  15   60
 172   81
  56   62
  80   60
 193   37
 173  154
 137  170
  32   85
  46  101
 194   83
  77    7
 142  153
 184  193
  20  160
 104  103
 167   15
 141  184
 129  186
  88  136
  44   37
 116    7
 187   46
  98  107
  92   59
  26  191
  42   76
 119  125
 116  113
   9   41
  49  159
  76  141
 195   93
  85  125
 157   80
  97   49
  35   29
 101   27
 154   64
  24   94
 111  122
 159  179
 135  185
 171  168
 118   34
 195   57
  45  164
  41   94
  57   96
  45  163
  74   15
  12   32
 199   43
 111  167
 119  117
 188   92
 102  179
  96   85
  83  137
 116   78
  18   36
 192   86
  35  106
 159  105
  76  102
 176   39
  67  197
 147  168
 147  174
  95   56
 108   92
 100   82
  26  190
  55  150
 198   29
  17   55
  31   12
 183    3
  30  185
  90  115
 108   48
 172   24
  12   76
 120  146
  99  173
 126   50
 142   73
 123  200
  99  145
   3    5
 145  131
  20  101
   5  106
  20   50
  54  160
 103  101
 163   94
  93  145
  59   14
  15  107
 140   31
 156   46
   1  186
 139  143
 148   93
  41   92
 107   70
  53   60
  77  134
 101  160
  48  167
   1  106
 141  163
 158  195
  89   40
 168  128
  44    8
 147  191
 152  195
 187  165
  89    9
   7  197
 110    8
 143   83
  78   15
  36    9
 101  173
 158  154
 176   92
  48   51
  52   86
 189    4
 131   84
 121   52
  14  168
  81  138
 187   34
 172   51
 164   88
 105  163
 111   19
  10   15
 140   17
 164  134
  80  110
  33   73
  88  173
 143  141
 154  184
  36  147
  95   41
  65   77
 105  142
  53  145
 186   58
 177   54
 142    1
  29  197
   1  181
 153  103
  47   66
 156   36
  54  155
 117    1
  94  150
 180   27
  81   63
 100   89
  55   13
 118   89
 179   39
   2  200
 111   90
  31  173
  16  169
 124  175
 133  197
 108   43
  80   19
  18  103
  21  170
 104  199
 157   28
 197   85
 130  168
 118   63
 143   49
 188  149
   4  106
  67  165
  85  132
   6   23
 130  123
 143   20
  50  144
 120   25
 138  106
 197  131
  84  161
  92   31
  37  140
 104   11
 198  106
 149    3
  76   34
  89   94
 178   12
 159   77
  52    5
 108  165
 144   52
  68  132
 142   68
  74  198
  88   60
  43  110
 192  115
 156  137
 164  200
  81   14
 109  117
  60  196
  99   50
 163  166
  73  175
  84  190
  23   80
  30    4
  28  185
  73   18
  15  110
 190    8
 117   38
  45  184
  14  143
  32  174
  46   78
 199  110
 104  102
  28  170
 146   37
  81   13
 184  114
 146   48
  13  104
  31   76
 147   37
  11  165
 138   59
  68   40
  40   52
 152   40
 164  197
 190  131
  45  130
 188  173
 198    4
   3  159
 106  160
 123  133
 114  185
  80   94
 194   16
  64   87
 164   56
 174  181
  26   19
 118   77
 155  158
 127   30
 130  110
  34   97
   9  118
  18  168
  86  114
 113   21
 158   16
  25  170
  60   68
  55  181
 198   96
 152   93
  48  182
  67  138
  24  136
 177   76
 149    4
   6   50
 100   60
  28   21
 189   89
  63  184
  63  113
 159   52
  43  126
 190  139
  46   90
 126   15
  89  114
  24   65
 135   57
  42  148
 196  157
  87   86
  45   30
  27    1
 158  101
  87  147
 181  136
  71   45
 108  159
 144  145
  36  138
  20   10
  50  130
 162  146
  22  121
 103   35
  40  119
 184   53
  51  163
 183  189
 137  183
 169  187
 149  189
  10   71
  38  151
 112   20
 127  175
  13  108
 103    6
  44   83
 179  162
  66  179
 130  141
 152  113
  23  128
  87  117
  71  187
  47  191
   9  164
 107    3
  24  103
  92  123
 114  126
  38   67
 123  183
  97  141
 193  148
  94   98
 181   61
  33  182
 134   50
  96   19
  95  175
 161  183
 185   78
  34   79
 153   31
  36   78
 190   96
   6  150
  35  108
  58  179
  49   91
  57  107
   8  192
  43  171
 109  149
 113   33
 156   84
 160   75
  33  118
  80  104
  87  164
  17   75
 199   30
 162  168
 129  146
  32   62
 160   89
   2  162
 192  197
  80   89
  12  194
 187   63
  94   86
 133   77
 195  114
  88   47
  26   66
  80  195
  49   99
 158  187
  64    9
 135  184
 152  181
 117   67
 165   64
  84   36
   9  138
  67   56
 161   44
  69    9
 168  145
   6   68
  92  184
  72   95
 149   45
  18  121
 167   31
  53   16
  55    4
 177   81
  45   84
 188   62
 171   74
 185   25
  38   21
  99  156
 100   96
  56   50
 117    5
  61   24
   6   88
 158   73
  76  112
  47  198
 160  167
 164  124
 167  122
  56   75
 100  128
 130   47
 194   55
 167   11
  68  167
  24   50
 119   62
 133  103
 111  127
  94  145
 125  144
  60  164
 108  174
 180  107
  84  196
 119   20
   7   22
   5  147
  45  138
 162  171
 170  108
 154  110
 166   54
 132  154
  53  106
   1  192
  44   31
 183  135
   2   17
 119   81
  81   72
  89    8
 139  200
 130   80
 103  141
 140   73
 116  117
  75   71
   9   91
  60   48
 179  132
  11  182
  17  143
 101   85
   8   69
  53  198
  59   74
  60   31
 192  110
  44  165
 164  148
 145  148
  10   68
 169   96
 178   99
 133   74
  73   69
  63   29
  56   41
  62   34
  73  194
  67  149
  56   60
  89  113
  14  175
  48   36
 150  109
 105  177
  81  154
 175  199
 104   61
 157   21
  68  107
  72  181
 185  192
 128   85
 159  189
  32  135
  70  124
 172  176
 143   67
 136  137
 165  127
  25  130
  87  184
  54   33
  45  136
 118  152
  68  131
 124  162
 113   87
 199   74
 110  139
 175   79
 113  173
  67  188
  54  101
  99  196
  71  189
  65   57
 185   10
 123  101
  61   49
 106   51
 139   58
 152  146
 106   91
 121   80
  66  154
  26   18
  69   89
  22  114
  56  139
 115  135
 128   61
  51   80
  66  113
 131  188
  48   14
  57   45
 161    8
  94  186
 197   82
  93   76
 186  173
 188   65
 143  140
 153   75
 121  104
 111   14
  52  185
 167   34
  63  111
  35   54
 108  184
 110    5
  90  136
 171   46
 138   42
 185  155
 125   58
  37   30
  30  136
 133  126
 152  162
 146   88
 194   13
 152  147
 157   83
 171  125
 193  109
 144  113
  33   47
  10   85
 134  103
  39   85
  75  162
  98  164
 140  177
 116  190
  42  122
  15   79
 200   15
  10   89
  25   73
 191   15
  76   36
 198   35
  82  177
   4   93
   9   33
  58   17
  23  157
 182   32
 158  148
   1   93
   4   90
 116   12
  76  110
  57  127
  93   21
  22   52
 127   44
 103  178
 148   55
  57    2
 176   89
  99  127
  66   73
  37   98
 193   91
  91  160
   6   54
  32   24
 132  102
   7  199
  68  154
 107   20
 164  170
 106  186
 168   73
 101  177
 137   45
 142  159
  56   22
 154   29
  21  164
  78   43
 187  188
 119   86
 105   74
   3  128
 144  179
 184   55
  49   69
 183   14
  69  135
  78  115
 173  136
 166   28
  63   68
  84  125
 158   91
  80  149
 118   62
 193    9
   3   35
  56   16
  78  153
  33  116
  80  171
 109  138
  92   49
 139  194
   4    3
 155   39
 146  104
 168  175
  33   77
  23   58
 142   58
 175  196
 165  117
  42  177
  73  198
  60   24
 180  187
 174  136
  30   55
 113   19
 189   74
  50   57
 133  163
  25   13
 101  148
  59   42
  25  132
 126   22
  74   70
  73  103
 131  161
  84  151
   8   68
 111  161
  28  178
  64  161
   9   98
  98  178
  78   35
 128  102
  75  102
 192  132
  13  180
 166  198
  92   99
  46  145
 148   72
 184   69
 136  161
  63  159
 147   21
 171  153
  55  115
   4   33
  39   83
 181   62
  47   51
 153  192
 112  164
  51  200
   1   84
 175   15
 103  182
   5    6
 198  146
   2  114
  48  102
 155   31
 138   30
  95  178
 105  153
  79   62
 159  173
 143  167
   3   24
 146  180
 160  195
  12   30
  48  193
 140  162
 200   11
 175  120
 164  143
  20  120
  23  194
 131  168
 101    7
   7   30
  88  175
 157  162
  16  196
   9   15
  37  177
  57    8
  54  109
 175  159
 150   26
 170   62
 184   40
   6   24
  86   12
  41  172
 120   18
 135  187
 108   70
  15   35
 132    8
 112  105
 138  128
 198  140
 135  179
  85  103
 195   89
 106   79
  23  121
 117    4
 198  145
  10   62
   9  109
 143   81
 100  172
 123   82
 161  127
  75   94
 181  137
 124  200
  73  130
  33   56
  50  133
 148  156
  17  138
 169   95
 154  139
 141   36
  44  170
 138   16
 112   98
