6
0
14
19
14
11
1
30
1
39
14
54
8
111
58
24
58
21
0
39
10
39
4
255
30
10
30
4
255
19
10
20
4
255
11
10
11
4
255
0
10
2
4
255
60
15
60
21
8421504
48
15
48
21
8421504
36
15
36
21
8421504
28
15
28
21
8421504
9
15
9
21
8421504
42
1
1
15
32768
41
1
2
15
32768
40
1
3
15
32768
39
1
4
15
32768
38
1
5
15
32768
37
1
6
15
32768
36
1
7
15
32768
35
1
8
15
32768
1
16
20
15
32768
2
16
21
15
32768
3
16
22
15
32768
4
16
23
15
32768
5
16
24
15
32768
6
16
25
15
32768
7
16
26
15
32768
8
16
27
15
32768
56
3
54
15
8421376
57
3
55
10
8421376
58
3
57
15
8421376
59
3
58
10
8421376
58
25
40
10
32896
57
25
41
10
32896
56
25
42
10
32896
55
25
43
10
32896
19
18
18
21
8421504
2
21
0
15
8421504
39
21
39
18
8421504
20
16
40
15
32768
21
16
41
15
32768
22
16
42
15
32768
23
16
43
15
32768
24
16
44
15
32768
25
16
45
15
32768
26
16
46
15
32768
27
16
47
15
32768
1
10
12
25
16711935
2
10
12
26
16711935
3
10
12
27
16711935
4
10
12
28
16711935
5
10
12
29
16711935
6
10
12
30
16711935
7
10
12
31
16711935
8
10
12
32
16711935
1
9
8
25
32896
8
26
2
9
32896
3
9
8
27
32896
4
9
8
28
32896
5
9
8
29
32896
6
9
8
30
32896
7
9
8
31
32896
8
9
8
32
32896
1
8
4
25
8421376
4
26
2
8
8421376
4
27
3
8
8421376
4
28
4
8
8421376
4
29
5
8
8421376
4
30
6
8
8421376
4
31
7
8
8421376
8
8
4
32
8421376
1
7
0
25
128
0
26
2
7
128
0
27
3
7
128
0
28
4
7
128
5
7
0
29
128
0
30
6
7
128
7
7
0
31
128
0
32
8
7
128
29
1
36
10
0
36
9
35
10
0
34
10
33
10
0
46
1
38
7
32896
38
8
32
10
32896
31
10
9
10
32896
28
1
35
15
0
35
16
34
15
0
33
15
32
15
0
38
9
31
15
32896
30
15
28
10
32896
27
1
16
15
0
16
16
15
15
0
14
15
13
15
0
38
10
12
15
32896
11
15
48
10
32896
53
4
53
25
255
54
4
54
7
255
40
16
56
15
32768
41
16
59
15
32768
42
16
57
10
32768
43
16
60
10
32768
46
25
55
16
16711935
47
25
58
16
16711935
48
25
56
10
16711935
49
25
59
10
16711935
47
1
47
3
8421376
16
31
20
10
128
16
30
21
10
128
16
29
22
10
128
16
28
23
10
128
17
18
17
21
8421504
18
25
48
9
255
