
	Distribution Summary

Distribution:	Exponential  
Expression:	0.42 + EXPO(0.739)
Square Error:	0.009130

Chi Square Test
  Number of intervals	= 3
  Degrees of freedom 	= 1
  Test Statistic     	= 2.93
  Corresponding p-value	= 0.0901

Kolmogorov-Smirnov Test
  Test Statistic	= 0.13
  Corresponding p-value	> 0.15

	Data Summary

Number of Data Points	= 53
Min Data Value       	= 0.43
Max Data Value       	= 4.63
Sample Mean          	= 1.16
Sample Std Dev       	= 0.823

	Histogram Summary

Histogram Range    	= 0.42 to 4.63
Number of Intervals	= 7


==================================================================
Int.   No. of               Probability           Cumulative      
No.    Data Pts.   x        Density               Distribution    
------------------------------------------------------------------
                            Data   Function       Data   Function   
   0    31       1.02      0.585      0.557      0.585      0.557
   1     9       1.62      0.170      0.247      0.755      0.804
   2     8       2.22      0.151      0.109      0.906      0.913
   3     2       2.83     0.0377     0.0485      0.943      0.961
   4     2       3.43     0.0377     0.0215      0.981      0.983
   5     0       4.03      0.000    0.00953      0.981      0.992
   6     1       4.63     0.0189    0.00422       1.00      0.997
