
	Distribution Summary

Distribution:	Exponential  
Expression:	0.129 + EXPO(3.38)
Square Error:	0.023472

Chi Square Test
  Number of intervals	= 4
  Degrees of freedom 	= 2
  Test Statistic     	= 8.19
  Corresponding p-value	= 0.0183

Kolmogorov-Smirnov Test
  Test Statistic	= 0.0783
  Corresponding p-value	> 0.15

	Data Summary

Number of Data Points	= 52
Min Data Value       	= 0.13
Max Data Value       	= 12.8
Sample Mean          	= 3.51
Sample Std Dev       	= 2.92

	Histogram Summary

Histogram Range    	= 0.129 to 12.8
Number of Intervals	= 7


==================================================================
Int.   No. of               Probability           Cumulative      
No.    Data Pts.   x        Density               Distribution    
------------------------------------------------------------------
                            Data   Function       Data   Function   
   0    20       1.94      0.385      0.415      0.385      0.415
   1    15       3.75      0.288      0.243      0.673      0.658
   2     3       5.56     0.0577      0.142      0.731      0.800
   3    10       7.37      0.192     0.0831      0.923      0.883
   4     1       9.18     0.0192     0.0486      0.942      0.931
   5     1       11.0     0.0192     0.0284      0.962      0.960
   6     2       12.8     0.0385     0.0166       1.00      0.977
