<?xml version="1.0" encoding="UTF-8"?>
<!DOCTYPE X3D PUBLIC "ISO//Web3D//DTD X3D 3.0//EN" "http://www.web3d.org/specifications/x3d-3.0.dtd">
<X3D version="3.0" profile="Immersive" xmlns:xsd="http://www.w3.org/2001/XMLSchema-instance" xsd:noNamespaceSchemaLocation="http://www.web3d.org/specifications/x3d-3.0.xsd">
	<head>
		<meta name='copyright' content='Copyright (c) AnyLogic North America 2013'/>
	</head>
	<Scene>
		<NavigationInfo headlight="false"
		                visibilityLimit="0.0"
		                type='"EXAMINE", "ANY"'
		                avatarSize="0.25, 1.75, 0.75"
		                />
		<Background DEF="WO_World"
		            groundColor="0.051 0.051 0.051"
		            skyColor="0.051 0.051 0.051"
		            />
		<Transform 
		           translation="23.5 -6.5 0"
		           scale="1.0 1.0 1.0"
		           rotation="0.000000 0.707107 0.707107 3.141593"
		           >
			<Transform DEF="group_0_002_TRANSFORM"
			           translation="45.515434 0.000000 0.000000"
			           scale="1.000000 1.000000 1.000000"
			           rotation="-0.000000 0.707107 0.707107 3.141593"
			           >
			</Transform>
			<Transform DEF="group_0_001_TRANSFORM"
			           translation="45.515434 0.000000 0.000000"
			           scale="1.000000 1.000000 1.000000"
			           rotation="-0.000000 0.707107 0.707107 3.141593"
			           >
				<Transform DEF="group_0_001_ifs_TRANSFORM"
				           translation="0.000000 0.000000 0.000000"
				           scale="1.000000 1.000000 1.000000"
				           rotation="0.000000 0.000000 0.000000 0.000000"
				           >
					<Group DEF="group_ME_ID11">
						<Shape>
							<Appearance>
								<Material DEF="MA_material"
								          diffuseColor="0.318 0.318 0.318"
								          specularColor="0.401 0.401 0.401"
								          emissiveColor="0.000 0.000 0.000"
								          ambientIntensity="0.333"
								          shininess="0.098"
								          transparency="0.0"
								          />
							</Appearance>
							<IndexedFaceSet solid="true"
							                coordIndex="0 1 2 -1 1 0 3 -1 4 5 6 -1 5 4 7 -1 8 9 10 -1 9 8 11 -1 11 8 12 -1 12 8 13 -1 13 8 14 -1 14 8 15 -1 14 15 16 -1 13 17 12 -1 18 19 20 -1 19 18 21 -1 21 18 22 -1 21 22 23 -1 24 25 26 -1 25 24 27 -1 28 29 30 -1 29 28 31 -1 31 28 32 -1 31 32 33 -1 34 35 36 -1 35 34 37 -1 37 34 38 -1 38 34 39 -1 40 41 42 -1 41 40 43 -1 43 44 41 -1 45 46 47 -1 46 45 48 -1 49 50 51 -1 50 49 52 -1 53 54 55 -1 54 53 56 -1 57 58 59 -1 58 57 60 -1 61 62 63 -1 62 61 64 -1 13 65 66 -1 65 13 67 -1 67 13 14 -1 68 69 70 -1 69 68 71 -1 71 68 72 -1 73 74 75 -1 74 73 76 -1 75 77 78 -1 77 75 79 -1 79 75 74 -1 77 79 80 -1 81 82 83 -1 82 81 84 -1 85 86 87 -1 86 85 88 -1 88 85 89 -1 90 91 92 -1 91 90 93 -1 91 93 94 -1 94 93 95 -1 96 97 98 -1 97 96 99 -1 97 99 100 -1 97 100 101 -1 102 103 104 -1 103 102 105 -1 103 105 106 -1 103 106 107 -1 108 109 110 -1 109 108 111 -1 111 108 112 -1 113 114 115 -1 114 113 116 -1 116 113 117 -1 118 119 120 -1 119 118 121 -1 122 123 124 -1 125 126 127 -1 126 125 128 -1 129 122 130 -1 131 132 133 -1 132 131 134 -1 135 136 137 -1 136 135 138 -1 138 135 139 -1 138 139 140 -1 141 142 143 -1 142 141 144 -1 145 146 147 -1 146 145 148 -1 149 150 151 -1 150 149 152 -1 153 154 129 -1 155 156 157 -1 156 158 159 -1 158 156 155 -1 160 161 162 -1 161 160 163 -1 161 163 164 -1 165 166 167 -1 166 165 168 -1 169 170 171 -1 170 169 172 -1 173 174 175 -1 174 173 176 -1 154 177 123 -1 178 179 180 -1 179 178 181 -1 182 183 184 -1 183 182 185 -1 186 187 188 -1 187 186 189 -1 190 191 192 -1 193 194 195 -1 194 193 196 -1 197 198 199 -1 198 197 200 -1 201 202 203 -1 202 201 204 -1 205 206 207 -1 208 209 210 -1 209 208 211 -1 212 213 214 -1 213 212 215 -1 216 217 218 -1 219 220 221 -1 220 222 223 -1 222 220 219 -1 222 219 224 -1 225 226 227 -1 226 225 228 -1 228 225 229 -1 229 225 230 -1 231 232 233 -1 232 231 234 -1 235 236 237 -1 238 239 240 -1 239 238 241 -1 242 243 244 -1 243 242 245 -1 245 242 246 -1 246 242 247 -1 248 249 250 -1 249 248 251 -1 251 248 252 -1 253 254 255 -1 254 253 256 -1 256 257 254 -1 258 259 260 -1 259 258 261 -1 262 263 264 -1 263 262 265 -1 266 267 268 -1 267 266 269 -1 270 271 272 -1 271 270 273 -1 271 273 274 -1 270 275 276 -1 275 270 272 -1 275 272 277 -1 278 279 280 -1 279 278 281 -1 282 283 284 -1 283 282 285 -1 283 285 286 -1 286 285 287 -1 288 289 290 -1 289 288 291 -1 289 291 292 -1 292 291 293 -1 294 295 296 -1 295 294 297 -1 295 297 298 -1 299 300 301 -1 300 299 302 -1 302 299 303 -1 304 305 306 -1 305 304 307 -1 308 309 310 -1 309 308 311 -1 311 308 312 -1 313 314 315 -1 314 316 317 -1 316 314 313 -1 318 319 320 -1 319 318 321 -1 322 323 324 -1 323 322 325 -1 "
							                >
								<Coordinate DEF="coords_ME_ID11"
								            point="38.103817 3.543307 28.129665 35.538204 4.330709 28.129665 35.538204 3.543307 28.129665 38.103817 4.330709 28.129665 35.538200 4.330709 26.219847 38.103817 4.330709 28.129665 38.103817 4.330709 25.767460 35.538204 4.330709 28.129665 45.515438 4.330709 29.257883 38.103817 4.330709 25.767460 44.695049 4.330709 24.605247 38.103817 4.330709 28.129665 35.538204 4.330709 28.129665 19.928846 4.330709 28.972198 16.779240 4.330709 29.527559 7.131196 4.330709 36.026058 6.310812 4.330709 31.373426 35.538200 4.330709 26.219847 35.538204 4.330709 28.129665 35.538200 3.543307 2.362205 35.538204 3.543307 28.129665 35.538200 4.330709 2.362205 35.538200 4.330709 26.219847 35.538200 4.330709 4.377481 38.103817 3.543307 28.129665 35.538200 3.543307 2.362205 38.103817 3.543307 2.362205 35.538204 3.543307 28.129665 38.103817 4.330709 2.362205 38.103817 3.543307 28.129665 38.103817 3.543307 2.362205 38.103817 4.330709 28.129665 38.103817 4.330709 4.377481 38.103817 4.330709 25.767460 44.695049 7.480315 24.605247 19.928846 4.330709 28.972198 19.928846 7.480315 28.972198 35.538200 4.330709 26.219847 38.103817 4.330709 25.767460 44.695049 4.330709 24.605247 35.538200 4.330709 26.219847 36.821011 4.330709 5.118110 35.538200 4.330709 4.377481 38.103817 4.330709 25.767460 38.103817 4.330709 4.377481 44.695049 7.480315 24.605247 45.515438 4.330709 29.257883 44.695049 4.330709 24.605247 45.515438 7.480315 29.257883 45.515438 4.330709 29.257883 7.131196 7.480315 36.026058 7.131196 4.330709 36.026058 45.515438 7.480315 29.257883 6.310812 7.480315 31.373426 7.131196 4.330709 36.026058 6.310812 4.330709 31.373426 7.131196 7.480315 36.026058 16.779240 7.480315 29.527559 6.310812 4.330709 31.373426 6.310812 7.480315 31.373426 16.779240 4.330709 29.527559 19.928846 7.480315 28.972198 16.779240 4.330709 29.527559 16.779240 7.480315 29.527559 19.928846 4.330709 28.972198 18.354044 4.330709 27.559055 19.928846 4.330709 27.559055 16.779240 4.330709 27.559055 38.103817 4.330709 4.377481 35.538200 4.330709 2.362205 38.103817 4.330709 2.362205 35.538200 4.330709 4.377481 36.821011 4.330709 5.118110 41.253422 4.330709 2.559055 38.103817 4.330709 2.362205 41.253422 4.330709 0.000000 38.103817 4.330709 4.377481 32.388596 4.330709 2.559055 32.388596 4.330709 0.000000 35.538200 4.330709 2.362205 35.538200 4.330709 4.377481 38.103817 4.330709 2.362205 35.538200 3.543307 2.362205 35.538200 4.330709 2.362205 38.103817 3.543307 2.362205 19.928846 5.905512 27.559055 19.928846 4.330709 28.972198 19.928846 4.330709 27.559055 19.928846 7.480315 28.972198 19.928846 7.480315 27.559055 19.928846 7.480315 28.972198 45.515438 7.480315 29.257883 44.695049 7.480315 24.605247 16.779240 7.480315 29.527559 7.131196 7.480315 36.026058 6.310812 7.480315 31.373426 36.821011 4.330709 5.118110 38.103817 5.511811 4.377481 36.821011 5.511811 5.118110 38.103817 4.330709 4.377481 41.253422 4.330709 2.559055 41.253422 5.511811 2.559055 32.388596 4.330709 2.559055 35.538200 5.511811 4.377481 32.388596 5.511811 2.559055 35.538200 4.330709 4.377481 36.821011 4.330709 5.118110 36.821011 5.511811 5.118110 16.779240 7.480315 29.527559 16.779240 4.330709 27.559055 16.779240 4.330709 29.527559 16.779240 5.905512 27.559055 16.779240 7.480315 27.559055 16.779240 7.480315 29.527559 18.354044 7.480315 27.559055 16.779240 7.480315 27.559055 19.928846 7.480315 27.559055 19.928846 7.480315 28.972198 18.354044 4.330709 27.559055 12.448532 0.000000 0.000000 14.023335 0.000000 0.000000 16.779240 4.330709 27.559055 18.354044 4.330709 27.559055 16.779240 5.905512 27.559055 16.779240 4.330709 27.559055 19.928846 4.330709 27.559055 22.684753 0.000000 0.000000 24.259556 0.000000 0.000000 18.354044 4.330709 27.559055 19.928846 5.905512 27.559055 19.928846 4.330709 27.559055 32.388596 4.330709 2.559055 32.388596 5.511811 0.000000 32.388596 4.330709 0.000000 32.388596 5.511811 2.559055 35.538200 5.511811 0.000000 32.388596 4.330709 0.000000 32.388596 5.511811 0.000000 41.253422 4.330709 0.000000 38.103817 5.511811 0.000000 41.253422 5.511811 0.000000 41.253422 5.511811 0.000000 41.253422 4.330709 2.559055 41.253422 4.330709 0.000000 41.253422 5.511811 2.559055 24.259556 1.574803 0.000000 19.928846 4.330709 27.559055 24.259556 0.000000 0.000000 19.928846 5.905512 27.559055 24.259556 10.236220 0.000000 19.928846 7.480315 27.559055 19.928846 5.905512 27.559055 24.259556 11.811023 0.000000 19.928846 7.480315 27.559055 18.354044 7.480315 27.559055 38.103817 5.511811 9.055119 36.821011 5.511811 5.118110 38.103817 5.511811 4.377481 35.538200 5.511811 9.055119 35.538200 5.511811 4.377481 35.538200 5.511811 0.000000 38.103817 5.511811 4.377481 38.103817 5.511811 0.000000 35.538200 5.511811 4.377481 36.821011 5.511811 5.118110 38.103817 5.511811 4.377481 41.253422 5.511811 0.000000 38.103817 5.511811 0.000000 41.253422 5.511811 2.559055 32.388596 5.511811 2.559055 35.538200 5.511811 0.000000 32.388596 5.511811 0.000000 35.538200 5.511811 4.377481 16.779240 7.480315 27.559055 12.448532 10.236220 0.000000 16.779240 5.905512 27.559055 12.448532 11.811023 0.000000 16.779240 7.480315 27.559055 16.779240 4.330709 27.559055 12.448532 1.574803 0.000000 12.448532 0.000000 0.000000 16.779240 5.905512 27.559055 18.354044 7.480315 27.559055 24.259556 11.811023 0.000000 22.684753 11.811023 0.000000 19.928846 7.480315 27.559055 16.779240 7.480315 27.559055 14.023335 11.811023 0.000000 12.448532 11.811023 0.000000 18.354044 7.480315 27.559055 14.023335 0.000000 0.000000 12.448532 0.000000 0.000000 12.448532 1.574803 0.000000 16.779240 5.905512 27.559055 14.023335 0.000000 0.000000 12.448532 1.574803 0.000000 18.354044 4.330709 27.559055 18.354044 7.480315 27.559055 18.354044 4.330709 27.559055 16.779240 5.905512 27.559055 19.928846 5.905512 27.559055 18.354044 4.330709 27.559055 24.259556 1.574803 0.000000 22.684753 0.000000 0.000000 19.928846 5.905512 27.559055 24.259556 0.000000 0.000000 22.684753 0.000000 0.000000 24.259556 1.574803 0.000000 38.103817 6.301504 0.000000 35.538200 5.511811 0.000000 35.538200 6.301504 0.000000 38.103817 5.511811 0.000000 19.928846 5.905512 27.559055 22.684753 11.811023 0.000000 24.259556 10.236220 0.000000 18.354044 7.480315 27.559055 24.259556 10.236220 0.000000 22.684753 11.811023 0.000000 24.259556 11.811023 0.000000 35.538200 6.301504 9.055119 35.538200 5.511811 4.377481 35.538200 5.511811 9.055119 35.538200 6.301504 0.000000 35.538200 5.511811 0.000000 35.538200 6.301504 4.377481 38.103817 6.301504 0.000000 38.103817 5.511811 4.377481 38.103817 5.511811 0.000000 38.103817 5.511811 9.055119 38.103817 6.301504 9.055119 38.103817 6.301504 4.377481 38.103817 5.511811 9.055119 35.538200 6.301504 9.055119 35.538200 5.511811 9.055119 38.103817 6.301504 9.055119 14.023335 11.811023 0.000000 12.448532 10.236220 0.000000 12.448532 11.811023 0.000000 18.354044 7.480315 27.559055 12.448532 10.236220 0.000000 14.023335 11.811023 0.000000 16.779240 5.905512 27.559055 41.253422 7.482607 0.000000 32.388596 6.301504 0.000000 32.388596 7.482607 0.000000 35.538200 6.301504 0.000000 38.103817 6.301504 0.000000 41.253422 6.301504 0.000000 38.103817 6.301504 4.377481 35.538200 6.301504 0.000000 38.103817 6.301504 0.000000 35.538200 6.301504 4.377481 36.821011 6.301504 5.118110 35.538200 6.301504 9.055119 36.821011 6.301504 5.118110 35.538200 6.301504 4.377481 38.103817 6.301504 9.055119 38.103817 6.301504 4.377481 35.538200 6.301504 4.377481 32.388596 6.301504 0.000000 35.538200 6.301504 0.000000 32.388596 6.301504 2.559055 41.253422 6.301504 2.559055 38.103817 6.301504 0.000000 41.253422 6.301504 0.000000 38.103817 6.301504 4.377481 32.388596 6.301504 2.559055 32.388596 7.482607 0.000000 32.388596 6.301504 0.000000 32.388596 7.482607 2.559055 32.388596 7.482607 0.000000 35.538200 7.482607 2.362205 38.103817 7.482607 2.362205 32.388596 7.482607 2.559055 35.538200 7.482607 4.377481 41.253422 7.482607 2.559055 41.253422 7.482607 0.000000 38.103817 7.482607 4.377481 41.253422 7.482607 0.000000 41.253422 6.301504 2.559055 41.253422 6.301504 0.000000 41.253422 7.482607 2.559055 36.821011 6.301504 5.118110 38.103817 7.482607 4.377481 36.821011 7.482607 5.118110 38.103817 6.301504 4.377481 41.253422 7.482607 2.559055 41.253422 6.301504 2.559055 32.388596 6.301504 2.559055 35.538200 7.482607 4.377481 32.388596 7.482607 2.559055 35.538200 6.301504 4.377481 36.821011 7.482607 5.118110 36.821011 6.301504 5.118110 35.538200 7.482607 2.362205 38.103817 7.482607 4.377481 38.103817 7.482607 2.362205 35.538200 7.482607 4.377481 36.821011 7.482607 5.118110 35.538200 8.270008 28.129665 35.538200 7.482607 4.377481 35.538204 7.482607 28.129665 35.538200 7.482607 2.362205 35.538200 8.270008 2.362205 38.103817 8.270008 2.362205 35.538200 7.482607 2.362205 35.538200 8.270008 2.362205 38.103817 7.482607 2.362205 38.103817 7.482607 2.362205 38.103817 7.482607 28.129665 38.103817 7.482607 4.377481 38.103817 8.270008 28.129665 38.103817 8.270008 2.362205 38.103817 7.482607 28.129665 36.821011 7.482607 5.118110 38.103817 7.482607 4.377481 35.538204 7.482607 28.129665 35.538200 7.482607 4.377481 35.538204 7.482607 28.129665 38.103817 8.270008 28.129665 35.538200 8.270008 28.129665 38.103817 7.482607 28.129665 35.538200 8.270008 2.362205 38.103817 8.270008 28.129665 38.103817 8.270008 2.362205 35.538200 8.270008 28.129665 "
								            />
							</IndexedFaceSet>
						</Shape>
					</Group>
				</Transform>
			</Transform>
			<Transform DEF="group_0_TRANSFORM"
			           translation="45.515434 0.000000 0.000000"
			           scale="1.000000 1.000000 1.000000"
			           rotation="-0.000000 0.707107 0.707107 3.141593"
			           >
				<Transform DEF="group_0_ifs_TRANSFORM"
				           translation="0.000000 0.000000 0.000000"
				           scale="1.000000 1.000000 1.000000"
				           rotation="0.000000 0.000000 0.000000 0.000000"
				           >
					<Group DEF="group_ME_ID3">
						<Shape>
							<Appearance>
								<Material DEF="MA_material_2"
								          diffuseColor="0.431 0.271 0.012"
								          specularColor="0.401 0.401 0.401"
								          emissiveColor="0.000 0.000 0.000"
								          ambientIntensity="0.333"
								          shininess="0.098"
								          transparency="0.0"
								          />
							</Appearance>
							<IndexedFaceSet solid="true"
							                creaseAngle="0.5236"
							                coordIndex="0 1 2 -1 1 0 3 -1 4 5 6 -1 5 4 7 -1 5 7 8 -1 5 8 9 -1 5 9 10 -1 5 10 11 -1 5 11 12 -1 12 11 13 -1 12 13 14 -1 12 14 15 -1 12 15 16 -1 16 15 17 -1 16 17 18 -1 3 19 1 -1 19 3 20 -1 21 22 23 -1 22 21 24 -1 24 21 25 -1 25 21 26 -1 26 21 27 -1 27 21 28 -1 28 21 29 -1 28 29 30 -1 30 29 31 -1 31 29 32 -1 32 29 33 -1 32 33 34 -1 34 33 35 -1 36 2 37 -1 36 0 2 -1 38 39 40 -1 39 38 41 -1 42 43 44 -1 43 42 45 -1 46 47 48 -1 47 46 49 -1 48 50 51 -1 50 48 47 -1 52 50 53 -1 50 52 51 -1 54 53 55 -1 53 54 52 -1 56 55 57 -1 55 56 54 -1 58 57 59 -1 57 58 56 -1 20 59 19 -1 59 20 58 -1 60 37 61 -1 37 60 36 -1 62 61 63 -1 61 62 60 -1 "
							                >
								<Coordinate DEF="coords_ME_ID3"
								            point="0.407693 7.480315 36.346516 0.086549 4.330709 34.974281 0.407693 4.330709 36.346516 0.086549 7.480315 34.974281 4.086624 7.480315 26.562351 6.310812 7.480315 31.373426 5.353695 7.480315 25.945353 2.940922 7.480315 27.383036 1.949021 7.480315 28.384182 1.138998 7.480315 29.537447 0.533779 7.480315 30.810188 0.150497 7.480315 32.166378 7.131196 7.480315 36.026058 0.000000 7.480315 33.567635 0.086549 7.480315 34.974281 0.407693 7.480315 36.346516 2.656320 7.480315 39.879704 0.954343 7.480315 37.645493 1.711024 7.480315 38.834438 0.000000 4.330709 33.567635 0.000000 7.480315 33.567635 6.310812 4.330709 31.373426 4.086624 4.330709 26.562351 5.353695 4.330709 25.945351 2.940922 4.330709 27.383036 1.949021 4.330709 28.384182 1.138998 4.330709 29.537447 0.533779 4.330709 30.810188 0.150497 4.330709 32.166378 7.131196 4.330709 36.026058 0.000000 4.330709 33.567635 0.086549 4.330709 34.974281 0.407693 4.330709 36.346516 2.656320 4.330709 39.879704 0.954343 4.330709 37.645493 1.711024 4.330709 38.834438 0.954343 7.480315 37.645493 0.954343 4.330709 37.645493 2.656320 4.330709 39.879704 7.131196 7.480315 36.026058 2.656320 7.480315 39.879704 7.131196 4.330709 36.026058 5.353695 7.480315 25.945353 6.310812 4.330709 31.373426 5.353695 4.330709 25.945351 6.310812 7.480315 31.373426 5.353695 7.480315 25.945353 4.086624 4.330709 26.562351 4.086624 7.480315 26.562351 5.353695 4.330709 25.945351 2.940922 4.330709 27.383036 2.940922 7.480315 27.383036 1.949021 7.480315 28.384182 1.949021 4.330709 28.384182 1.138998 7.480315 29.537447 1.138998 4.330709 29.537447 0.533779 7.480315 30.810188 0.533779 4.330709 30.810188 0.150497 7.480315 32.166378 0.150497 4.330709 32.166378 1.711024 7.480315 38.834438 1.711024 4.330709 38.834438 2.656320 7.480315 39.879704 2.656320 4.330709 39.879704 "
								            />
							</IndexedFaceSet>
						</Shape>
					</Group>
				</Transform>
			</Transform>
		</Transform>
	</Scene>
</X3D>