2.00
3.60
2.50
2.47
1.38
1.62
1.75
1.18
3.20
1.17
1.50
1.75
1.38
2.25
0.67
0.83
1.92
1.17
1.82
1.17
2.08
1.50
1.88
1.92
2.70
1.63
2.92
3.33
0.92
2.00
1.42
8.68
2.02
1.28
2.25
3.48
1.38
0.87
3.53
1.77
2.03
2.50
2.50
1.58
2.65
2.60
2.95
2.78
0.38
4.75
0.83
2.75
2.30