39
41
36
29
35
49
24
72
57
38
35
46
56
67
45
38
71
42
69
58
69
54
69
71
46
42
47
29
48
68
73
80
24
43
74
57
40
61
48
50
61
66
29
76
49
61
62
45
46
24
47
34
32
51
76
79
66
28
36
77
23
26
67
64
40
24
42
61
70
62
26
45
25
30
63
40
56
63
21
25
31
22
53
24
58
74
75
80
23
50
42
36
50
30
42
59
43
59
76
56
20
66
35
71
24
68
30
75
31
26
61
55
39
53
43
43
41
77
21
28
53
63
20
44
23
33
74
21
46
43
70
57
26
27
28
21
74
74
68
74
51
27
74
28
26
69
30
45
58
77
51
60
50
80
46
54
79
51
56
25
65
51
39
79
42
22
22
32
67
62
70
53
71
20
76
21
67
27
31
46
63
26
58
70
29
58
74
21
51
38
66
26
55
37
60
77
23
67
31
60
20
47
51
27
44
20
20
49
55
62
60
61
70
63
57
72
66
70
57
20
75
70
56
39
31
79
26
67
45
54
70
57
69
46
26
71
46
43
45
66
68
68
73
44
35
80
64
22
54
74
74
68
44
41
43
79
69
68
74
62
63
60
33
40
46
72
72
20
33
42
43
27
59
60
22
71
33
32
33
57
70
21
77
57
36
27
41
40
62
21
36
79
30
38
58
23
29
20
21
69
79
34
30
68
43
54
46
36
79
56
40
69
68
50
21
64
65
42
66
58
25
75
49
72
23
66
36
22
31
27
71
52
79
32
20
21
35
64
38
76
68
46
40
74
64
53
43
43
24
43
72
27
36
61
69
56
57
36
46
52
69
47
54
46
47
53
30
25
52
45
74
22
75
76
47
26
71
47
36
70
51
42
74
24
47
57
48
46
25
25
40
67
35
34
46
65
60
51
74
33
46
74
46
75
54
42
78
62
46
46
78
39
39
57
26
63
75
77
64
57
65
47
34
22
67
64
64
63
73
40
46
61
34
43
33
65
21
80
24
76
63
66
60
25
64
41
67
38
73
75
70
45
69
58
43
53
58
31
61
56
38
37
22
63
31
29
47
68
52
22
24
23
78
60
60
44
20
70
27
25
57
68
21
23
54
72
22
55
24
72
52
60
34
56
77
54
52
47
45
40