630527|123752|02204ch155|predavac|Ivan|Smoliak|
851003|123752|01001moy78|brigadnik|Martin|Vesely|
831010|123752|01001univ6|skladnik|Richard|Jablonka|
805305|578316|01001fat33|predavacka|Iveta|Rieciciarova|
860113|145842|02201pala3|predavac|Michal|Vrbicky|
541229|578316|01001obc15|brigadnik|Jan|Domanicky|
551207|578316|01401ok158|veduci|Lukas|Mokros|
850130|652885|02302kos11|predavac|Dezider|Salaj|
725615|145842|02201hal87|predavacka|Jana|Suchankova|
890801|145842|01001l2578|brigadnik|Marian|Kubala|
886022|335962|02302nar36|predavacka|Lenka|Petrovicova|
715907|652885|01001pi158|predavacka|Monika|Benicka|
700514|335962|02201pr456|skladnik|Milos|Hrvaj|
830419|335962|02401st556|predavac|Dobroslav|Klesar|
710405|652885|01001cern1|predavac|Roman|Luknar|